<?xml version="1.0" standalone="no"?>
<!DOCTYPE svg PUBLIC "-//W3C//DTD SVG 1.1//EN" "http://www.w3.org/Graphics/SVG/1.1/DTD/svg11.dtd" >
<svg xmlns="http://www.w3.org/2000/svg">
<metadata></metadata>
<defs>
<font id="MuseoSans300Italic" horiz-adv-x="1255" >
<font-face units-per-em="2048" ascent="1536" descent="-512" />
<missing-glyph horiz-adv-x="555" />
<glyph unicode="&#xfb01;" horiz-adv-x="1136" d="M102 0l179 911h-129l22 119h129l8 43q18 96 58 168t84.5 110.5t100 62t95 30t78.5 6.5l76 -4l-27 -125q-18 4 -47 4t-56 -4.5t-63.5 -20.5t-66 -42.5t-55.5 -76t-39 -114.5l-9 -37h611l-201 -1030h-139l176 911h-467l-178 -911h-140zM950 1266l37 174h150l-35 -174h-152z " />
<glyph unicode="&#xfb02;" horiz-adv-x="1167" d="M102 0l177 903h-129l22 119h129l10 53q18 95 58 166.5t84.5 110t100 62t95 30t78.5 6.5l76 -4l-27 -125q-18 4 -47 4t-56 -4.5t-63.5 -20.5t-66 -42.5t-55.5 -76t-39 -114.5l-11 -45h264l-22 -119h-262l-176 -903h-140zM741 182q0 30 9 74l231 1184h139l-227 -1166 q-6 -34 -6 -63q0 -31 8.5 -50.5t24 -28t29.5 -11t34 -2.5l31 2l-27 -125q-22 -4 -47 -4q-27 0 -52 4t-52.5 17t-47.5 33t-33.5 55t-13.5 81z" />
<glyph unicode="&#xfb03;" horiz-adv-x="1798" d="M102 0l179 911h-129l22 119h129l8 43q18 96 58 168t84.5 110.5t100 62t95 30t78.5 6.5l76 -4l-27 -125q-18 4 -47 4t-56 -4.5t-63.5 -20.5t-66 -42.5t-55.5 -76t-39 -114.5l-9 -37h525l8 43q18 96 58 168t84.5 110.5t100 62t95 30t78.5 6.5l75 -4l-26 -125q-18 4 -47 4 t-56 -4.5t-64 -20.5t-66 -42.5t-55.5 -76t-39.5 -114.5l-8 -37h610l-201 -1030h-139l176 911h-467l-178 -911h-139l178 911h-522l-178 -911h-140zM1612 1266l37 174h149l-35 -174h-151z" />
<glyph unicode="&#xfb04;" horiz-adv-x="1828" d="M102 0l179 911h-129l22 119h129l8 43q18 96 58 168t84.5 110.5t100 62t95 30t78.5 6.5l76 -4l-27 -125q-18 4 -47 4t-56 -4.5t-63.5 -20.5t-66 -42.5t-55.5 -76t-39 -114.5l-9 -37h523l8 43q18 96 58 168t84.5 110.5t99.5 62t94.5 30t78.5 6.5l76 -4l-26 -125 q-18 4 -47 4t-56 -4.5t-64 -20.5t-66 -42.5t-55.5 -76t-39.5 -114.5l-8 -37h264l-23 -119h-262l-178 -911h-139l178 911h-520l-178 -911h-140zM1403 182q0 35 8 74l231 1184h140l-228 -1166q-6 -34 -6 -63q0 -31 8.5 -50.5t24.5 -28t30 -11t34 -2.5l30 2l-26 -125 q-22 -4 -47 -4q-27 0 -52 4t-52.5 17t-47.5 33t-33.5 55t-13.5 81z" />
<glyph horiz-adv-x="0" />
<glyph horiz-adv-x="2048" />
<glyph unicode=" "  horiz-adv-x="555" />
<glyph unicode="&#x09;" horiz-adv-x="555" />
<glyph unicode="&#xa0;" horiz-adv-x="555" />
<glyph unicode="!" horiz-adv-x="632" d="M117 0l33 162h161l-32 -162h-162zM205 377l201 1063h145l-215 -1063h-131z" />
<glyph unicode="&#x22;" horiz-adv-x="647" d="M236 1114l67 346h119l-66 -346h-120zM485 1114l66 346h121l-68 -346h-119z" />
<glyph unicode="#" horiz-adv-x="1480" d="M53 399l43 115h287l149 401h-286l41 115h286l152 410h129l-152 -410h355l151 410h127l-151 -410h284l-41 -115h-284l-150 -401h283l-41 -115h-285l-147 -399h-129l149 399h-354l-147 -399h-129l149 399h-289zM512 514h352l150 401h-355z" />
<glyph unicode="$" horiz-adv-x="1142" d="M41 160l96 100q5 -6 14.5 -16t43 -36t71 -45.5t98 -35.5t125.5 -16q134 0 238 83t104 212q0 59 -33 107t-85.5 81.5t-115.5 64.5t-126.5 66t-116 75.5t-85.5 102t-33 137.5q0 78 35 152t95 131.5t145.5 94.5t180.5 44l39 191h115l-37 -193q60 -6 114 -22.5t88 -35 t60 -36.5t37 -30l12 -11l-84 -108q-4 5 -12.5 12.5t-38 26.5t-61.5 34t-83 27t-104 12q-149 0 -252.5 -90t-103.5 -199q0 -53 33 -96.5t85.5 -75.5t116 -63t127 -66.5t116 -78.5t85.5 -108t33 -146q0 -167 -131.5 -294t-327.5 -137l-35 -186h-114l34 193q-69 8 -132 29 t-103 45.5t-70.5 48.5t-43.5 39z" />
<glyph unicode="%" horiz-adv-x="1505" d="M18 0l1360 1440h160l-1364 -1440h-156zM221 1147q0 121 103 219t231 98q113 0 182.5 -70t69.5 -180q0 -125 -102 -222t-230 -97q-117 0 -185.5 68.5t-68.5 183.5zM344 1145q0 -58 38.5 -96.5t100.5 -38.5q79 0 140 61t61 143q0 58 -38 97t-99 39q-79 0 -141 -62t-62 -143 zM741 227q0 121 103 219.5t231 98.5q114 0 183 -70t69 -180q0 -125 -102 -222.5t-230 -97.5q-115 0 -184.5 69t-69.5 183zM864 225q0 -59 39 -97t101 -38q79 0 139.5 60.5t60.5 142.5q0 59 -38 98t-99 39q-78 0 -140.5 -62t-62.5 -143z" />
<glyph unicode="&#x26;" horiz-adv-x="1378" d="M76 342q0 144 97 269.5t249 164.5v4q-6 2 -16 6.5t-35.5 24.5t-45 45.5t-35.5 73t-16 104.5q0 188 141 309t349 121q40 0 84 -6.5t68 -13.5l24 -6l-57 -113q-68 14 -119 14q-141 0 -242.5 -85.5t-101.5 -221.5q0 -201 266 -201h303l41 203h139l-39 -203h195l-25 -126 h-194l-43 -211q-106 -519 -553 -519q-204 0 -319 100.5t-115 266.5zM223 346q0 -104 76.5 -170.5t212.5 -66.5q334 0 412 389l41 207h-303q-117 0 -214.5 -38.5t-161 -122t-63.5 -198.5z" />
<glyph unicode="'" horiz-adv-x="401" d="M236 1114l67 346h121l-66 -346h-122z" />
<glyph unicode="(" horiz-adv-x="587" d="M143 350q0 635 418 1145h135q-424 -535 -424 -1149q0 -288 97 -541h-125q-101 262 -101 545z" />
<glyph unicode=")" horiz-adv-x="589" d="M-94 -195q424 535 424 1149q0 288 -97 541h125q101 -262 101 -545q0 -635 -418 -1145h-135z" />
<glyph unicode="*" horiz-adv-x="956" d="M178 1108l64 125l274 -109l49 316h140l-76 -316l319 107l19 -129l-324 -90v-4l141 -242l-114 -78l-127 260h-4l-226 -258l-100 80l242 250v4z" />
<glyph unicode="+" horiz-adv-x="1390" d="M143 522l23 119h471l104 522h125l-102 -522h471l-23 -119h-471l-102 -522h-125l102 522h-473z" />
<glyph unicode="," horiz-adv-x="507" d="M-78 -199l191 367h157l-223 -367h-125z" />
<glyph unicode="-" horiz-adv-x="999" d="M190 518l23 127h582l-25 -127h-580z" />
<glyph unicode="." horiz-adv-x="497" d="M51 0l33 170h166l-33 -170h-166z" />
<glyph unicode="/" horiz-adv-x="804" d="M-53 -86l831 1606h140l-832 -1606h-139z" />
<glyph unicode="0" horiz-adv-x="1290" d="M137 440q0 82 10 173t34 191.5t58.5 194t88 178.5t118.5 148.5t153 101t189 37.5q406 0 406 -467q0 -83 -10 -173t-33.5 -190.5t-57.5 -193.5t-87.5 -178.5t-118 -148.5t-153.5 -100.5t-191 -37.5q-211 0 -308.5 123.5t-97.5 341.5zM285 440q0 -331 262 -331 q78 0 145.5 33t117.5 88t91 129.5t67.5 155.5t44.5 167.5t26 164.5t8 148q0 336 -263 336q-102 0 -187.5 -59t-141.5 -153t-95.5 -213.5t-57 -237.5t-17.5 -228z" />
<glyph unicode="1" horiz-adv-x="954" d="M4 0l23 127h323l203 1042l18 80h-4q-20 -29 -90 -86l-178 -147l-78 100l393 324h134l-259 -1313h318l-25 -127h-778z" />
<glyph unicode="2" horiz-adv-x="1161" d="M18 0q2 97 35.5 182t88.5 150t125.5 123.5t148 108t155 96.5t147 96t123.5 100t85.5 115t31.5 135q0 101 -66.5 162t-184.5 61q-60 0 -119 -20t-101 -48.5t-76 -57t-51 -48.5l-16 -20l-100 79q8 10 22.5 27t62.5 60t100 76t132 60t160 27q183 0 286 -95.5t103 -252.5 q0 -82 -28.5 -155.5t-77.5 -131.5t-112.5 -110.5t-135.5 -98.5t-144.5 -89.5t-141.5 -89t-124.5 -92t-95.5 -103.5t-53 -119h745l-24 -127h-900z" />
<glyph unicode="3" horiz-adv-x="1159" d="M8 172l96 98q5 -6 13.5 -17t41 -38.5t70 -48.5t99 -38t129.5 -17q72 0 142 28.5t125 77t88.5 119t33.5 147.5q0 119 -87 182.5t-222 63.5h-107l-18 84l440 422q20 20 42.5 40t35.5 30l12 10v4q-41 -6 -117 -6h-530l24 127h842l-18 -94l-525 -498q47 -3 94.5 -14.5 t99 -38.5t91 -66t65 -102.5t25.5 -141.5q0 -99 -43 -193t-115.5 -163.5t-171.5 -111.5t-206 -42q-63 0 -122.5 11t-103 28t-81.5 38t-63.5 42.5t-43.5 38.5t-27 28z" />
<glyph unicode="4" horiz-adv-x="1226" d="M33 399l18 93l879 948h166l-178 -916h204l-24 -125h-205l-78 -399h-141l78 399h-719zM240 524h536l117 602l33 136h-4q-1 0 -13 -16.5t-34.5 -44t-43.5 -48.5z" />
<glyph unicode="5" horiz-adv-x="1157" d="M31 180l102 92q4 -7 11 -17.5t34 -38.5t59 -49t87.5 -38.5t117.5 -17.5q79 0 155.5 31t136.5 84t97 129.5t37 160.5q0 120 -86 195t-223 75q-69 0 -138 -19t-103 -39l-35 -19l-88 32l213 699h700l-25 -127h-571l-115 -365l-28 -82h4q11 6 30 14.5t75.5 23t111.5 14.5 q190 0 308 -112t118 -286q0 -148 -81 -275t-213 -198.5t-280 -71.5q-86 0 -160 21t-118 51t-76 60.5t-44 51.5z" />
<glyph unicode="6" horiz-adv-x="1228" d="M127 494q0 75 16 162.5t49.5 181t81 183.5t114 170.5t144 141t176 96t205.5 35.5q77 0 146.5 -15t100.5 -29l30 -15l-72 -119q-9 5 -26.5 12.5t-70.5 20t-106 12.5q-109 0 -208 -50t-173 -134t-127.5 -184t-84.5 -209h4q65 77 168 122.5t208 45.5q179 0 283.5 -103 t104.5 -276q0 -103 -37.5 -204t-104 -182t-167.5 -131.5t-218 -50.5q-203 0 -319.5 142t-116.5 377zM274 467q0 -90 31.5 -170t98.5 -134t157 -54q161 0 273 125.5t112 304.5q0 119 -72 187.5t-200 68.5q-62 0 -131.5 -24t-129.5 -65.5t-99.5 -105t-39.5 -133.5z" />
<glyph unicode="7" horiz-adv-x="1071" d="M66 0l813 1180q24 35 50 68t40 49l14 16v4q-37 -4 -109 -4h-661l25 127h936l-19 -99l-930 -1341h-159z" />
<glyph unicode="8" horiz-adv-x="1247" d="M90 356q0 76 31.5 149.5t73 123t93.5 93.5t81.5 62.5t48.5 28.5q-135 100 -135 244q0 76 34.5 148.5t96 130.5t155 93t203.5 35q189 0 293 -85.5t104 -235.5q0 -62 -24.5 -129t-56 -115.5t-74.5 -97.5t-65.5 -70t-43.5 -39q162 -104 162 -260q0 -125 -74.5 -231 t-199 -166t-269.5 -60q-191 0 -312.5 102t-121.5 279zM240 360q0 -116 82.5 -185t203.5 -69q97 0 185.5 38.5t147.5 114.5t59 171q0 38 -18 72t-43 58.5t-69 51.5t-80 44.5t-92 44t-90 44.5q-27 -15 -56.5 -34t-73 -56.5t-76 -78.5t-56.5 -98.5t-24 -117.5zM430 1057 q0 -38 16.5 -71.5t37.5 -56.5t65 -50.5t72 -41.5t88 -42t86 -41q23 19 43 37t57 59.5t62.5 81t46 95t20.5 108.5q0 92 -69 145t-187 53q-146 0 -242 -81.5t-96 -194.5z" />
<glyph unicode="9" horiz-adv-x="1228" d="M82 35l72 119q10 -5 27 -12.5t70.5 -20t106.5 -12.5q87 0 169 33t146.5 89t119.5 130.5t93.5 156t63.5 168.5h-4q-61 -74 -164 -121t-211 -47q-180 0 -284.5 103t-104.5 276q0 103 38 203.5t104.5 182t168 131.5t218.5 50q203 0 318.5 -141.5t115.5 -376.5 q0 -75 -16 -162.5t-50 -181t-81 -183.5t-114 -170.5t-144 -141.5t-176 -96.5t-206 -35.5q-77 0 -146 15t-100 30zM326 901q0 -119 71 -187.5t197 -68.5q62 0 132.5 24t131.5 65.5t101 105t40 133.5q0 90 -31.5 170t-98.5 134t-156 54q-161 0 -274 -125.5t-113 -304.5z" />
<glyph unicode=":" horiz-adv-x="600" d="M98 0l33 170h166l-33 -170h-166zM266 860l33 170h166l-33 -170h-166z" />
<glyph unicode=";" horiz-adv-x="608" d="M-41 -199l188 367h160l-223 -367h-125zM279 860l32 170h166l-33 -170h-165z" />
<glyph unicode="&#x3c;" horiz-adv-x="1206" d="M94 530v103l926 414v-138l-752 -325v-4l752 -326v-137z" />
<glyph unicode="=" horiz-adv-x="1406" d="M215 344v119h954v-119h-954zM215 700v119h954v-119h-954z" />
<glyph unicode="&#x3e;" horiz-adv-x="1181" d="M150 117v137l751 326v4l-751 325v138l925 -414v-103z" />
<glyph unicode="?" horiz-adv-x="976" d="M180 0l33 162h160l-33 -162h-160zM213 1358q6 4 17.5 11.5t48 26t74 33t92.5 26t108 11.5q161 0 259.5 -85.5t98.5 -225.5q0 -74 -24.5 -138.5t-64 -111.5t-88 -89t-99.5 -81.5t-95 -78t-77.5 -88t-44.5 -103.5l-19 -88h-137l19 92q14 69 48 129.5t77 104.5t92.5 84.5 t96 78.5t84 77.5t60.5 90t23 107.5q0 85 -60.5 138.5t-162.5 53.5q-64 0 -131 -22t-102 -44l-34 -22z" />
<glyph unicode="@" horiz-adv-x="1624" d="M96 358q0 174 74.5 338.5t195 284.5t280 193t323.5 73q121 0 210 -25t140 -71t74.5 -102t23.5 -125q0 -26 -8 -80l-123 -629h146l-23 -115h-530q-163 0 -261 95t-98 241q0 84 38.5 166.5t102.5 145t151.5 101t180.5 38.5h285q4 24 4 39q0 89 -76 144.5t-231 55.5 q-143 0 -278.5 -64t-235.5 -168t-160.5 -244.5t-60.5 -287.5q0 -217 136 -356t363 -139l-22 -121q-268 0 -444.5 174t-176.5 438zM664 438q0 -97 63.5 -160t167.5 -63h254l108 563h-249q-135 0 -239.5 -103.5t-104.5 -236.5z" />
<glyph unicode="A" d="M-88 0l803 1440h155l248 -1440h-143l-76 459h-580l-253 -459h-154zM383 582h496l-86 522l-23 186h-4q-53 -118 -90 -186z" />
<glyph unicode="B" horiz-adv-x="1284" d="M90 0l281 1440h463q164 0 259 -78.5t95 -224.5q0 -131 -68.5 -230.5t-181.5 -146.5v-4q81 -28 129.5 -103.5t48.5 -179.5q0 -152 -78.5 -265.5t-206.5 -168.5q-91 -39 -204 -39h-537zM256 127h369q154 0 249 97.5t95 248.5q0 101 -63.5 160t-172.5 59h-366zM391 815h348 q124 0 212.5 88t88.5 221q0 88 -53 138.5t-151 50.5h-349z" />
<glyph unicode="C" horiz-adv-x="1488" d="M121 594q0 175 71.5 336.5t188.5 278t273.5 186t320.5 69.5q99 0 188 -19t145 -46.5t97.5 -55t59.5 -46.5l18 -19l-90 -100q-6 6 -17 16.5t-50.5 37t-83.5 46.5t-115.5 36.5t-147.5 16.5q-140 0 -271.5 -59t-227.5 -158t-154 -234.5t-58 -281.5q0 -215 129.5 -352 t347.5 -137q81 0 163 19.5t141 47.5t106 56t71 48l23 19l70 -111q-10 -9 -28 -23t-77.5 -51t-123 -65t-159 -51t-190.5 -23q-190 0 -331.5 80t-215 220t-73.5 319z" />
<glyph unicode="D" horiz-adv-x="1511" d="M90 0l281 1440h436q293 0 459 -146.5t166 -412.5q0 -180 -63 -341.5t-174 -280.5t-271 -189t-344 -70h-490zM254 127h309q206 0 371 98t257.5 268t92.5 379q0 212 -129.5 326.5t-359.5 114.5h-308z" />
<glyph unicode="E" horiz-adv-x="1163" d="M90 0l281 1440h811l-27 -127h-668l-102 -525h547l-25 -126h-545l-106 -535h705l-23 -127h-848z" />
<glyph unicode="F" horiz-adv-x="1056" d="M90 0l281 1440h757l-24 -127h-617l-104 -541h528l-24 -127h-529l-127 -645h-141z" />
<glyph unicode="G" horiz-adv-x="1550" d="M119 578q0 141 45 275.5t126.5 243.5t188 192.5t237 129t265.5 45.5q95 0 182 -17t142.5 -41.5t98 -49t60.5 -41.5l19 -17l-90 -102q-6 5 -17.5 14.5t-51 32.5t-83.5 41t-114 32.5t-144 14.5q-192 0 -357.5 -103t-262.5 -275.5t-97 -368.5q0 -214 129 -344.5t338 -130.5 q80 0 161 23t139 55.5t104.5 65.5t70.5 56l23 23l47 229h-246l25 127h379l-133 -688h-132l23 111l14 61h-4q-8 -8 -23 -21.5t-64 -47.5t-102 -59.5t-134.5 -47t-163.5 -21.5q-263 0 -430.5 168.5t-167.5 434.5z" />
<glyph unicode="H" horiz-adv-x="1536" d="M90 0l281 1440h141l-127 -656h834l129 656h141l-281 -1440h-143l129 657h-834l-129 -657h-141z" />
<glyph unicode="I" horiz-adv-x="559" d="M90 0l281 1440h141l-281 -1440h-141z" />
<glyph unicode="J" horiz-adv-x="1060" d="M14 301q0 45 11 107l10 53h141l-8 -51q-10 -52 -10 -88q0 -213 213 -213q50 0 97 15.5t92.5 48t80 92t49.5 138.5l174 910h-350l25 127h491l-203 -1051q-21 -110 -69 -192.5t-112 -129.5t-133.5 -69.5t-143.5 -22.5q-72 0 -134.5 19t-112.5 57t-79 102t-29 148z" />
<glyph unicode="K" horiz-adv-x="1228" d="M90 0l281 1440h141l-121 -625h234l518 625h168l-572 -686v-4l314 -750h-154l-283 688h-249l-136 -688h-141z" />
<glyph unicode="L" horiz-adv-x="1044" d="M90 0l281 1440h141l-256 -1313h668l-27 -127h-807z" />
<glyph unicode="M" horiz-adv-x="1746" d="M43 0l395 1440h144l211 -846l36 -176h5q57 100 104 176l543 846h149l-166 -1440h-139l119 1008q4 36 11.5 85t14 82t7.5 33h-4q-66 -126 -115 -200l-481 -740h-134l-196 740q-8 32 -17.5 83t-15.5 86l-6 35h-4q-21 -126 -41 -204l-279 -1008h-141z" />
<glyph unicode="N" horiz-adv-x="1529" d="M90 0l281 1440h127l532 -1037q16 -32 36 -80.5t32 -80.5l12 -33h4q11 118 25 194l202 1037h142l-281 -1440h-127l-532 1036q-16 32 -36.5 81t-32.5 81l-13 33h-4q-11 -119 -25 -195l-201 -1036h-141z" />
<glyph unicode="O" horiz-adv-x="1683" d="M119 598q0 171 74 332.5t193.5 277.5t277 186t319.5 70q278 0 452.5 -170t174.5 -436q0 -140 -48 -274.5t-132 -243t-193 -191.5t-237 -128.5t-257 -45.5q-278 0 -451 175t-173 448zM264 602q0 -217 134 -355t347 -138q131 0 261 59.5t230.5 158.5t163 237.5t62.5 287.5 q0 211 -134 345t-347 134q-89 0 -178 -26.5t-168 -73.5t-147.5 -114.5t-118 -147t-77.5 -174.5t-28 -193z" />
<glyph unicode="P" horiz-adv-x="1228" d="M90 0l281 1440h471q142 0 227 -49q80 -43 125 -122.5t45 -181.5q0 -165 -86 -293.5t-223 -187.5q-100 -41 -209 -41h-379l-111 -565h-141zM367 692h340q94 0 167 33q99 44 158.5 137t59.5 219q0 110 -70.5 171t-196.5 61h-338z" />
<glyph unicode="Q" horiz-adv-x="1708" d="M119 598q0 137 47.5 269.5t131 238.5t192 187.5t237 126t258.5 44.5q184 0 326.5 -78t220.5 -215.5t78 -312.5q0 -182 -76.5 -345t-208.5 -288l139 -174l-94 -84l-139 178q-226 -170 -486 -170q-279 0 -452.5 175t-173.5 448zM266 602q0 -217 133.5 -355t345.5 -138 q216 0 402 141l-143 182l94 84l143 -186q103 104 162 239.5t59 282.5q0 211 -133 345t-346 134q-134 0 -264.5 -58t-230 -155t-161 -233.5t-61.5 -282.5z" />
<glyph unicode="R" horiz-adv-x="1282" d="M90 0l281 1440h473q126 0 200 -39q80 -39 125 -115t45 -176q0 -170 -101.5 -301t-262.5 -168v-4q10 -18 24 -59l205 -578h-151l-211 606h-367l-117 -606h-143zM375 733h334q151 0 255.5 101t104.5 262q0 101 -64 159t-178 58h-340z" />
<glyph unicode="S" horiz-adv-x="1101" d="M20 160l95 100q5 -6 14.5 -16t43 -36t71 -45.5t98 -35.5t125.5 -16q134 0 238 83t104 212q0 59 -33 107t-85.5 81.5t-116 64.5t-127 66t-116 75.5t-85.5 102t-33 137.5q0 110 66 207.5t182.5 157t253.5 59.5q73 0 139.5 -14.5t109 -35t74.5 -40.5t46 -34l14 -15l-84 -108 q-4 5 -12.5 12.5t-37.5 26.5t-61 34t-82.5 27t-103.5 12q-151 0 -255 -90t-104 -199q0 -53 33 -96.5t85.5 -75.5t116 -63t127 -66.5t116 -78.5t85.5 -108t33 -146q0 -84 -37 -163t-100.5 -138t-155 -94.5t-194.5 -35.5q-86 0 -163.5 19t-127 46t-86.5 54.5t-54 46.5z" />
<glyph unicode="T" horiz-adv-x="1191" d="M143 1313l23 127h1173l-22 -127h-518l-254 -1313h-144l256 1313h-514z" />
<glyph unicode="U" horiz-adv-x="1476" d="M156 393q0 55 12 117l182 930h142l-183 -934q-10 -49 -10 -96q0 -142 90.5 -221.5t251.5 -79.5q186 0 317.5 107t167.5 294l183 930h143l-188 -948q-47 -239 -214.5 -378t-410.5 -139q-220 0 -351.5 111t-131.5 307z" />
<glyph unicode="V" horiz-adv-x="1259" d="M178 1440h146l184 -1094q5 -33 9.5 -79.5t6.5 -76.5l2 -30h4q1 -1 15 29t37 77.5t41 79.5l612 1094h160l-813 -1440h-154z" />
<glyph unicode="W" horiz-adv-x="1908" d="M236 1440h145l63 -1118l2 -154h5q32 80 67 154l537 1118h141l72 -1118l4 -154h4q30 82 61 154l498 1118h156l-654 -1440h-172l-69 1014q-3 37 -4 91v49v40v35h-5q-51 -121 -94 -213l-491 -1016h-168z" />
<glyph unicode="X" horiz-adv-x="1198" d="M-66 0l605 758l-285 682h154l170 -422l63 -164h4q58 86 117 162l340 424h170l-561 -697l319 -743h-151l-207 492l-60 159h-4q-55 -81 -114 -155l-396 -496h-164z" />
<glyph unicode="Y" horiz-adv-x="1155" d="M176 1440h152l202 -522q13 -34 27.5 -77t22.5 -69l8 -27h4q60 94 119 170l405 525h172l-649 -826l-121 -614h-141l123 618z" />
<glyph unicode="Z" horiz-adv-x="1210" d="M-35 0l21 100l942 1082q30 35 62 67.5t48 48.5l17 15v4q-33 -4 -105 -4h-690l27 127h979l-21 -101l-944 -1081q-30 -35 -62 -67.5t-49 -48.5l-16 -15v-4q35 4 105 4h737l-25 -127h-1026z" />
<glyph unicode="[" horiz-adv-x="581" d="M59 -195l330 1690h277l-23 -115h-149l-281 -1460h147l-22 -115h-279z" />
<glyph unicode="\" horiz-adv-x="790" d="M242 1520h125l206 -1606h-124z" />
<glyph unicode="]" horiz-adv-x="569" d="M-82 -195l23 115h149l283 1460h-150l23 115h278l-327 -1690h-279z" />
<glyph unicode="^" horiz-adv-x="1241" d="M31 512l405 928h96l406 -928h-133l-320 758l-319 -758h-135z" />
<glyph unicode="_" horiz-adv-x="1187" d="M-76 -119l23 119h1057l-23 -119h-1057z" />
<glyph unicode="`" horiz-adv-x="1032" d="M281 1784h151l96 -244h-118z" />
<glyph unicode="a" horiz-adv-x="1067" d="M16 236q0 69 24 127t63.5 98.5t96.5 72t117.5 51t131.5 31.5t133.5 16.5t128.5 4.5h65q15 69 15 108q0 84 -50 134.5t-161 50.5q-76 0 -154 -25t-118 -49l-40 -25l-45 117q6 4 18 11.5t50 26t78.5 32.5t101.5 25.5t121 11.5q160 0 250 -72.5t90 -220.5q0 -52 -12 -113 l-127 -649h-134l25 119l23 88h-5q2 0 -13 -24t-46.5 -58t-74.5 -68t-107.5 -58t-134.5 -24q-130 0 -220 70.5t-90 190.5zM160 254q0 -68 50.5 -114t147.5 -46q92 0 177 61t139.5 149t75.5 181l8 37h-60q-45 0 -84.5 -1.5t-96.5 -8t-103.5 -17t-95.5 -31t-82 -48t-54.5 -69 t-21.5 -93.5z" />
<glyph unicode="b" horiz-adv-x="1210" d="M51 0l279 1440h139l-96 -498q-4 -21 -11 -44.5t-12 -36.5l-4 -13h4q56 92 157.5 149.5t215.5 57.5q180 0 279.5 -111t99.5 -303q0 -143 -47.5 -269t-125.5 -212t-179.5 -135.5t-208.5 -49.5q-116 0 -203.5 55t-120.5 156h-4q0 -43 -10 -92l-19 -94h-133zM274 391 q0 -128 64.5 -209.5t193.5 -81.5q76 0 151 37t136.5 103t100 168.5t38.5 222.5q0 138 -69.5 217.5t-190.5 79.5q-122 0 -221 -79.5t-151 -201.5t-52 -256z" />
<glyph unicode="c" horiz-adv-x="1124" d="M68 414q0 136 53.5 257t141.5 204t202.5 131.5t234.5 48.5q73 0 138 -15t106 -37t72 -44t44 -37l13 -15l-84 -94q-4 5 -11.5 12.5t-34.5 27.5t-57 35t-78.5 27.5t-100.5 12.5q-123 0 -236.5 -63.5t-186.5 -181t-73 -257.5q0 -147 93.5 -236.5t242.5 -89.5q59 0 118 15 t100.5 36.5t75 43t49.5 36.5l17 15l43 -117q-7 -6 -19 -16.5t-53.5 -37t-86 -47t-113 -37t-137.5 -16.5q-211 0 -342 121t-131 318z" />
<glyph unicode="d" horiz-adv-x="1210" d="M70 389q0 143 47 269t125.5 212t181 135.5t211.5 49.5q112 0 198 -53t119 -152h4q1 43 9 86l98 504h139l-278 -1440h-136l21 109q4 20 9.5 40t9.5 31l3 10h-4q-56 -91 -154.5 -153t-219.5 -62q-184 0 -283.5 110.5t-99.5 303.5zM213 397q0 -138 69.5 -217.5t192.5 -79.5 q122 0 221 82t150 204t51 251q0 128 -64.5 209.5t-191.5 81.5q-76 0 -151.5 -37t-137.5 -103t-100.5 -168.5t-38.5 -222.5z" />
<glyph unicode="e" horiz-adv-x="1132" d="M70 410q0 125 45.5 242.5t123.5 206.5t190.5 142.5t238.5 53.5q186 0 281 -102t95 -271q0 -36 -7.5 -79.5t-14.5 -68.5l-8 -26h-791q-8 -41 -8 -88q0 -139 86 -229.5t244 -90.5q52 0 106 13t93.5 31t71.5 36.5t48 31.5l17 13l45 -114q-7 -6 -19.5 -15t-53 -32.5 t-83.5 -41.5t-105.5 -32.5t-123.5 -14.5q-212 0 -341.5 120t-129.5 315zM250 623h645q6 34 6 71q0 119 -64.5 181.5t-168.5 62.5q-133 0 -248.5 -83.5t-169.5 -231.5z" />
<glyph unicode="f" horiz-adv-x="661" d="M102 0l177 903h-129l22 119h129l10 53q18 95 58 166.5t84.5 110t100 62t95 30t78.5 6.5l76 -4l-27 -125q-18 4 -47 4t-56 -4.5t-63.5 -20.5t-66 -42.5t-55.5 -76t-39 -114.5l-11 -45h264l-22 -119h-262l-176 -903h-140z" />
<glyph unicode="g" horiz-adv-x="1193" d="M10 -344l68 106q13 -8 36 -19t94 -29.5t140 -18.5q159 0 273 80.5t149 242.5l21 95q3 17 8.5 37.5t9.5 32.5l4 12h-4q-127 -189 -342 -189q-182 0 -286.5 111.5t-104.5 298.5q0 88 22 177.5t67.5 172.5t108.5 147.5t152 103t190 38.5q115 0 206 -44t122 -139h4 q-2 23 2 46l23 112h135l-199 -1018q-23 -119 -78 -207t-131.5 -138t-161.5 -73.5t-180 -23.5q-189 0 -348 86zM219 424q0 -136 71 -214.5t199 -78.5q78 0 145.5 34.5t113.5 90.5t78.5 128t47.5 146.5t15 147.5q0 250 -262 250q-95 0 -174 -44t-129 -116t-77.5 -161 t-27.5 -183z" />
<glyph unicode="h" horiz-adv-x="1216" d="M49 0l281 1440h139l-107 -557l-24 -92h4q21 42 62 86t97.5 85t133.5 67t158 26q141 0 216.5 -68t75.5 -199q0 -55 -16 -137l-125 -651h-139l119 616q16 94 16 138q0 85 -47.5 127.5t-128.5 42.5q-84 0 -165.5 -36.5t-145 -97.5t-109.5 -142.5t-63 -170.5l-93 -477h-139z " />
<glyph unicode="i" horiz-adv-x="475" d="M49 0l201 1030h139l-201 -1030h-139zM289 1266l37 174h149l-35 -174h-151z" />
<glyph unicode="j" horiz-adv-x="475" d="M-309 -416l24 121q16 -2 45 -2q28 0 55.5 4.5t64.5 21t67 43.5t57.5 77.5t40.5 117.5l205 1063h139l-207 -1067q-19 -98 -57.5 -171.5t-81.5 -113t-96.5 -63.5t-93 -30.5t-80.5 -6.5q-22 0 -42.5 1.5t-30.5 2.5zM289 1266l35 174h149l-33 -174h-151z" />
<glyph unicode="k" horiz-adv-x="1026" d="M49 0l283 1440h139l-158 -803h160l385 393h176l-448 -455v-4l280 -571h-153l-246 514h-176l-103 -514h-139z" />
<glyph unicode="l" horiz-adv-x="505" d="M80 182q0 35 8 74l231 1184h140l-228 -1166q-6 -35 -6 -63q0 -31 8.5 -50.5t24.5 -28t30 -11t34 -2.5l30 2l-26 -125q-22 -4 -47 -4q-27 0 -52 4t-52.5 17t-47.5 33t-33.5 55t-13.5 81z" />
<glyph unicode="m" horiz-adv-x="1875" d="M51 0l199 1030h137l-29 -151q-3 -20 -10.5 -43.5t-12 -36.5t-3.5 -13h4q60 112 178.5 190.5t247.5 78.5q137 0 200.5 -65.5t69.5 -192.5h4q62 111 178.5 184.5t243.5 73.5q141 0 214 -69t73 -200q0 -57 -16 -139l-125 -647h-140l119 608q16 78 16 142q0 178 -178 178 q-80 0 -154 -40t-128 -104t-92 -141t-54 -156l-96 -487h-139l119 608q16 78 16 146q0 174 -170 174q-103 0 -198.5 -66t-157 -166.5t-82.5 -210.5l-95 -485h-139z" />
<glyph unicode="n" horiz-adv-x="1216" d="M49 0l201 1030h135l-27 -147q-4 -21 -10.5 -45t-11.5 -38l-4 -14h4q21 42 62 86.5t98.5 86.5t135.5 69t159 27q141 0 217.5 -68t76.5 -199q0 -55 -16 -137l-127 -651h-139l119 616q16 75 16 138q0 85 -47 127.5t-129 42.5q-84 0 -165.5 -36.5t-144.5 -97.5t-108.5 -142.5 t-62.5 -170.5l-93 -477h-139z" />
<glyph unicode="o" horiz-adv-x="1275" d="M68 426q0 128 53.5 246t141.5 201t203 132.5t234 49.5q209 0 340 -124.5t131 -320.5q0 -130 -54.5 -249t-142.5 -202.5t-202.5 -133.5t-232.5 -50q-210 0 -340.5 126t-130.5 325zM211 430q0 -145 91.5 -237.5t238.5 -92.5q89 0 177 39.5t156.5 106t111 161t42.5 197.5 q0 143 -92 233.5t-238 90.5q-122 0 -234 -65.5t-182.5 -181.5t-70.5 -251z" />
<glyph unicode="p" horiz-adv-x="1210" d="M-29 -410l279 1440h133l-18 -100q-4 -20 -10 -42t-11 -34l-4 -12h4q59 93 156 153t221 60q181 0 281 -110.5t100 -303.5q0 -143 -47 -269t-124.5 -212t-178.5 -135.5t-207 -49.5q-116 0 -203 53t-121 154h-4q-2 -45 -12 -98l-96 -494h-138zM274 397q0 -129 66 -213 t192 -84q61 0 121.5 23t115.5 69t97 108.5t67 148.5t25 182q0 139 -69 218t-191 79q-91 0 -172 -47t-135 -123t-85.5 -171t-31.5 -190z" />
<glyph unicode="q" horiz-adv-x="1210" d="M70 387q0 144 47.5 270.5t126 212.5t181.5 135.5t212 49.5q117 0 201 -53.5t116 -153.5h4q3 33 11 78l20 104h133l-278 -1440h-139l96 496q4 24 10.5 48.5t10.5 37.5l5 12h-4q-53 -88 -149 -148.5t-221 -60.5q-182 0 -282.5 110.5t-100.5 301.5zM213 397 q0 -138 70 -217.5t192 -79.5t221.5 82t151 204t51.5 251q0 128 -64.5 209.5t-191.5 81.5q-76 0 -152 -37t-138 -103t-101 -168.5t-39 -222.5z" />
<glyph unicode="r" horiz-adv-x="729" d="M51 0l199 1030h137l-37 -182l-24 -90h4q57 120 157 201t220 81q37 0 61 -6l-27 -137q-28 4 -51 4q-64 0 -125 -32.5t-108.5 -85t-87.5 -120.5t-66 -138.5t-39 -139.5l-74 -385h-139z" />
<glyph unicode="s" horiz-adv-x="905" d="M-6 125l84 92q4 -5 12 -13t35.5 -28t59 -35.5t82 -28t104.5 -12.5q59 0 113 20.5t92 65t38 103.5q0 37 -26 67.5t-67 53t-90.5 43.5t-99.5 46.5t-91 56.5t-67 78.5t-26 106.5q0 74 33 135t87.5 99.5t121.5 59t137 20.5q61 0 116.5 -11.5t90.5 -28t61.5 -33.5t37.5 -28 l12 -12l-78 -98l-9 9t-28 21t-48 26t-68.5 20.5t-88.5 9.5q-57 0 -109 -17.5t-91 -61.5t-39 -106q0 -38 26 -68.5t67 -53t91 -44t100.5 -47t91.5 -56.5t67 -79t26 -108q0 -134 -112 -224t-269 -90q-72 0 -137 15.5t-107.5 37.5t-74.5 44t-46 38z" />
<glyph unicode="t" horiz-adv-x="681" d="M127 903l23 119h137l57 293h137l-59 -293h260l-23 -119h-258l-98 -510q-10 -58 -10 -92q0 -47 11.5 -81.5t28.5 -53.5t41.5 -30.5t46.5 -15t48 -3.5l59 4l-24 -125q-24 -4 -53 -4q-57 0 -104 11.5t-94 41t-74 90t-27 148.5q0 40 10 112l100 508h-135z" />
<glyph unicode="u" horiz-adv-x="1206" d="M94 242q0 50 17 137l125 651h139l-119 -612q-14 -74 -14 -142q0 -81 40.5 -125.5t139.5 -44.5q111 0 212.5 66.5t167 169t87.5 215.5l92 473h139l-200 -1030h-138l29 147l27 97h-4q-18 -33 -45 -67.5t-69.5 -71t-91.5 -65t-113 -47t-132 -18.5q-127 0 -208 64.5 t-81 202.5z" />
<glyph unicode="v" horiz-adv-x="978" d="M96 1030h140l135 -760q4 -20 7 -51t4 -53l1 -21h4q33 72 64 125l430 760h151l-594 -1030h-147z" />
<glyph unicode="w" horiz-adv-x="1642" d="M115 1030h139l100 -772l8 -111h5q28 60 55 111l399 768h140l104 -768l10 -111h4q24 58 51 111l402 772h149l-546 -1030h-152l-111 739l-10 111h-4q-26 -62 -53 -111l-391 -739h-152z" />
<glyph unicode="x" horiz-adv-x="1001" d="M-63 0l471 543l-250 487h155l162 -342l25 -61h2q22 30 45 57l289 346h168l-435 -500l269 -530h-150l-186 383l-27 59h-4q-16 -26 -39 -55l-330 -387h-165z" />
<glyph unicode="y" horiz-adv-x="1021" d="M-184 -369l69 105q5 -5 14 -11.5t39 -18t62 -11.5q125 0 229 166l93 149l-234 1020h145l160 -770l19 -108h2q28 57 57 106l447 772h157l-753 -1249q-61 -102 -143 -156.5t-175 -54.5q-52 0 -99 15t-68 31z" />
<glyph unicode="z" horiz-adv-x="1034" d="M-33 0l17 90l706 723q21 22 45.5 45.5t38.5 35.5l14 13v4q-32 -4 -98 -4h-524l24 123h820l-19 -92l-708 -721q-22 -22 -47 -45.5t-40 -35.5l-14 -13v-4q35 4 103 4h567l-23 -123h-862z" />
<glyph unicode="{" horiz-adv-x="686" d="M102 598l25 127q7 1 19.5 3.5t45.5 18t60 38.5t55 69.5t39 106.5l35 174q71 360 375 360h30l-20 -115h-18q-19 0 -37.5 -3t-51 -17.5t-59 -39.5t-52.5 -76t-40 -120l-41 -206q-11 -59 -37.5 -107t-56 -74t-57.5 -44t-46 -23l-18 -6v-5q5 -2 13 -6.5t28.5 -22t36 -39 t28.5 -58.5t13 -80q0 -25 -6 -60l-43 -219q-11 -64 -11 -90q0 -44 12.5 -77t29 -49.5t40 -26t38.5 -11.5t32 -2h18l-22 -115q-13 -2 -33 -2q-23 0 -48.5 4.5t-62.5 20.5t-65 42.5t-48 76.5t-20 116q0 45 13 115l36 189q7 40 7 61q0 44 -14 77.5t-34 50.5t-40 28t-34 14z" />
<glyph unicode="|" horiz-adv-x="630" d="M256 -322v1936h129v-1936h-129z" />
<glyph unicode="}" horiz-adv-x="679" d="M-90 -197l22 115h19q20 0 39 3t51 17.5t57.5 39.5t51 76t38.5 120l45 229q12 62 38.5 111.5t56 76t57.5 44.5t46 23l18 6v4q-5 2 -13 6.5t-28.5 21.5t-36 38t-28.5 57t-13 77q0 26 6 60l39 196q10 58 10 90q0 44 -12.5 77t-29 49.5t-40 26t-38.5 11.5t-32 2h-18l23 115 q14 2 32 2q23 0 48.5 -4.5t62.5 -20.5t65 -42.5t48 -76.5t20 -116q0 -51 -12 -115l-33 -164q-6 -38 -6 -63q0 -44 14 -77.5t33.5 -50.5t39.5 -28t34 -13l14 -3l-25 -127q-7 -1 -19 -3.5t-45 -17.5t-60 -38t-55 -69.5t-40 -107.5l-39 -196q-72 -363 -374 -363z" />
<glyph unicode="~" horiz-adv-x="1206" d="M131 428q0 162 69.5 239.5t190.5 77.5q62 0 111 -22t81 -53.5t61 -62.5t68 -53t87 -22q43 0 74 20.5t45 54.5t20 65.5t6 64.5h121q0 -162 -69.5 -239.5t-190.5 -77.5q-62 0 -111 22t-81 53t-61 62.5t-68 53.5t-87 22q-43 0 -74 -20.5t-45 -54.5t-20 -65.5t-6 -64.5h-121z " />
<glyph unicode="&#xa1;" horiz-adv-x="557" d="M8 -410l215 1063h131l-202 -1063h-144zM248 868l33 162h161l-34 -162h-160z" />
<glyph unicode="&#xa2;" horiz-adv-x="1173" d="M129 586q0 123 40 244.5t110.5 221t176.5 165.5t228 75l35 172h115l-33 -176q56 -9 104 -30t80 -48t57.5 -57.5t40 -59.5t24 -52.5t12.5 -37.5l3 -14l-131 -49q-2 9 -5.5 24t-22.5 53t-45.5 67t-78 53t-116.5 24q-132 0 -236 -81.5t-158.5 -213t-54.5 -284.5 q0 -139 69.5 -220t209.5 -81q63 0 122 22.5t98.5 54.5t70.5 64.5t45 55.5l14 22l127 -54q-6 -12 -18.5 -31t-55.5 -69t-91.5 -89.5t-126 -74t-160.5 -39.5l-33 -170h-115l33 177q-155 25 -244.5 139t-89.5 297z" />
<glyph unicode="&#xa3;" horiz-adv-x="1187" d="M2 0l25 127h127l104 541h-90l22 112h89l63 318q31 156 163.5 261t309.5 105q57 0 111 -12.5t89 -31t62.5 -36.5t40.5 -30l12 -13l-98 -92q-3 3 -9.5 8.5t-27.5 20t-45 25t-61 19.5t-76 9q-130 0 -219.5 -73t-110.5 -181l-59 -297h393l-22 -112h-392l-106 -541h694 l-24 -127h-965z" />
<glyph unicode="&#xa5;" horiz-adv-x="1224" d="M170 432l18 105h334l19 79l-39 101h-277l21 104h217l-238 619h154l192 -512q14 -36 29 -81.5t23 -73.5l8 -28h4q56 101 119 183l393 512h170l-479 -619h215l-21 -104h-274l-74 -101l-18 -79h329l-18 -105h-330l-86 -432h-143l86 432h-334z" />
<glyph unicode="&#xa7;" horiz-adv-x="849" d="M-8 -37l84 88q6 -6 18.5 -15t52.5 -24.5t84 -15.5q122 0 195 79.5t78 200.5l39 887h123l-39 -897q-6 -163 -114 -278t-282 -115q-43 0 -83.5 9.5t-67.5 22.5t-48 26t-30 23zM201 174l37 897q4 105 51 193.5t137.5 144t208.5 55.5q43 0 83.5 -9.5t67.5 -22.5t48 -26 t30 -22l10 -10l-83 -88q-7 6 -19.5 15t-53.5 24.5t-85 15.5q-121 0 -194.5 -80t-78.5 -202l-36 -885h-123z" />
<glyph unicode="&#xa8;" horiz-adv-x="1032" d="M176 1608l35 176h125l-33 -176h-127zM485 1608l35 176h127l-35 -176h-127z" />
<glyph unicode="&#xa9;" horiz-adv-x="1722" d="M152 721q0 152 57 290t154 237t230.5 157.5t280.5 58.5q150 0 286 -58.5t234.5 -157.5t156 -236.5t57.5 -290.5q0 -206 -98 -377.5t-266.5 -270t-369.5 -98.5q-147 0 -280.5 58.5t-230.5 157.5t-154 237.5t-57 292.5zM272 721q0 -176 79 -322t217.5 -229.5t305.5 -83.5 q171 0 312.5 83.5t222 229.5t80.5 322q0 175 -80.5 320t-222 229t-312.5 84q-167 0 -305.5 -84t-217.5 -229t-79 -320zM473 717q0 110 48 204.5t146 156t228 61.5q63 0 120.5 -19.5t95 -47.5t65.5 -56.5t40 -47.5l13 -20l-94 -63q-3 6 -10 15.5t-29.5 33.5t-48 43t-65.5 34 t-83 15q-142 0 -223.5 -90.5t-81.5 -216.5q0 -127 81 -217t224 -90q43 0 83 14.5t67 35t47 41.5t30 35l9 15l94 -64q-5 -8 -13.5 -20.5t-40 -45.5t-67 -58t-93.5 -45.5t-120 -20.5q-130 0 -228 60.5t-146 154t-48 203.5z" />
<glyph unicode="&#xaa;" horiz-adv-x="870" d="M150 541l18 96h539l-19 -96h-538zM233 952q0 50 19 90t47 66t70 45t79 28.5t83 15t73.5 6.5t57.5 1h36q9 35 9 53q0 51 -30.5 79t-88.5 28q-42 0 -88.5 -14t-72.5 -28l-26 -15l-39 84q12 8 32.5 19.5t84 30.5t125.5 19q215 0 215 -190q0 -32 -12 -90l-76 -385h-108 l20 100h-4q-3 -5 -9 -12.5t-27 -27t-44 -34.5t-59 -27t-74 -12q-75 0 -134 44.5t-59 125.5zM352 965q0 -37 27.5 -60.5t79.5 -23.5q76 0 141.5 74t77.5 141l4 18h-27q-303 0 -303 -149z" />
<glyph unicode="&#xab;" horiz-adv-x="1062" d="M90 582l393 417h160l-407 -428l258 -413h-140zM451 582l421 417h162l-440 -428l260 -413h-141z" />
<glyph unicode="&#xac;" horiz-adv-x="1306" d="M166 700v119h954v-495h-125v376h-829z" />
<glyph unicode="&#xad;" horiz-adv-x="884" d="M20 518l23 127h582l-25 -127h-580z" />
<glyph unicode="&#xae;" horiz-adv-x="1722" d="M152 721q0 152 57 290t154 237t230.5 157.5t280.5 58.5q150 0 286 -58.5t234.5 -157.5t156 -236.5t57.5 -290.5q0 -206 -98 -377.5t-266.5 -270t-369.5 -98.5q-147 0 -280.5 58.5t-230.5 157.5t-154 237.5t-57 292.5zM272 721q0 -176 79 -322t217.5 -229.5t305.5 -83.5 q171 0 312.5 83.5t222 229.5t80.5 322q0 175 -80.5 320t-222 229t-312.5 84q-167 0 -305.5 -84t-217.5 -229t-79 -320zM633 322v798h285q106 0 172.5 -65t66.5 -172q0 -84 -44 -140t-105 -71v-4q8 -10 26 -45l154 -301h-127l-160 323h-153v-323h-115zM748 735h149 q65 0 103 39.5t38 108.5q0 67 -38 104t-103 37h-149v-289z" />
<glyph unicode="&#xaf;" horiz-adv-x="1032" d="M147 1608l21 112h506l-21 -112h-506z" />
<glyph unicode="&#xb0;" horiz-adv-x="778" d="M205 1141q0 125 101.5 223t228.5 98q111 0 182 -70.5t71 -177.5q0 -126 -102 -223.5t-227 -97.5q-113 0 -183.5 70t-70.5 178zM326 1145q0 -59 39 -98t102 -39q78 0 139.5 60.5t61.5 141.5q0 59 -39.5 98.5t-100.5 39.5q-78 0 -140 -62t-62 -141z" />
<glyph unicode="&#xb1;" horiz-adv-x="1437" d="M158 522v119h473v522h125v-522h471v-119h-471v-522h-125v522h-473zM195 -213h995v-119h-995v119z" />
<glyph unicode="&#xb2;" horiz-adv-x="782" d="M0 866q2 83 34.5 152t83 116t110.5 87.5t120 75t109.5 70t80.5 81t31 98.5q0 55 -39 91t-102 36q-48 0 -99 -25t-77 -50l-27 -25l-65 78l13.5 13.5t37 30.5t59 39t75.5 30.5t89 13.5q118 0 185 -62t67 -162q0 -66 -26.5 -121.5t-70 -95t-96.5 -74t-109 -66t-105 -63.5 t-86.5 -74.5t-51.5 -90.5h449l-21 -103h-569z" />
<glyph unicode="&#xb3;" horiz-adv-x="782" d="M16 981l78 72q3 -4 9 -11t27 -24.5t44.5 -30.5t61 -24t77.5 -11q86 0 152.5 61.5t66.5 151.5q0 65 -51 103.5t-121 38.5h-67l-19 63l248 236l62 51v4q-39 -6 -76 -6h-311l18 102h539l-15 -74l-299 -284q33 -4 67 -18.5t67 -40.5t54 -70.5t21 -100.5q0 -128 -98 -225.5 t-240 -97.5q-53 0 -103 14t-83.5 34t-59 39.5t-37.5 33.5z" />
<glyph unicode="&#xb4;" horiz-adv-x="1032" d="M223 1540l191 244h172l-228 -244h-135z" />
<glyph unicode="&#xb6;" horiz-adv-x="1173" d="M160 903q0 142 82 267.5t212 197.5t269 72h512l-23 -127h-370l-275 -1415h-118l114 596q-162 0 -282.5 117.5t-120.5 291.5zM694 -102l250 1292h117l-250 -1292h-117z" />
<glyph unicode="&#xb7;" horiz-adv-x="559" d="M174 504l33 170h164l-31 -170h-166z" />
<glyph unicode="&#xb8;" horiz-adv-x="1032" d="M201 -408l20 95q35 -11 82 -11t83 18.5t36 61.5q0 28 -28 44t-77 16l-30 -2l98 227l78 -14l-2 -17l-47 -123q49 -8 83.5 -42.5t34.5 -90.5q0 -86 -68 -130t-153 -44q-30 0 -57.5 3t-39.5 6z" />
<glyph unicode="&#xb9;" horiz-adv-x="782" d="M53 866l21 103h192l113 583l14 50h-4q-10 -17 -49 -50l-96 -77l-60 81l244 201h107l-154 -788h188l-18 -103h-498z" />
<glyph unicode="&#xba;" horiz-adv-x="966" d="M160 541l18 96h621l-19 -96h-620zM233 1067q0 105 57.5 197.5t148.5 145t190 52.5q130 0 213.5 -79t83.5 -201q0 -108 -58 -201t-149.5 -145t-190.5 -52q-130 0 -212.5 79t-82.5 204zM346 1075q0 -84 51 -135t135 -51q108 0 194.5 84t86.5 203q0 82 -52.5 133t-135.5 51 q-108 0 -193.5 -84t-85.5 -201z" />
<glyph unicode="&#xbb;" horiz-adv-x="1062" d="M16 158l439 428l-260 413h141l264 -424l-422 -417h-162zM406 158l409 428l-260 413h141l265 -424l-394 -417h-161z" />
<glyph unicode="&#xbc;" horiz-adv-x="1933" d="M113 549l20 102h193l112 584l15 49h-4q-11 -16 -50 -49l-96 -78l-59 82l243 201h107l-154 -789h189l-19 -102h-497zM406 0l966 1440h127l-964 -1440h-129zM1069 233l14 78l545 580h119l-109 -555h134l-19 -103h-133l-47 -233h-113l45 233h-436zM1235 336h291l53 278 q4 24 13 56t15 51.5t5 19.5h-4q-43 -55 -86 -100l-287 -301v-4z" />
<glyph unicode="&#xbd;" horiz-adv-x="1906" d="M113 549l20 102h193l112 584l15 49h-4q-11 -16 -50 -49l-96 -78l-59 82l243 201h107l-154 -789h189l-19 -102h-497zM408 0l966 1440h127l-964 -1440h-129zM1090 0q2 83 34.5 152t83 116t110.5 87.5t120 75t109.5 70t80.5 81t31 98.5q0 55 -39 91t-102 36q-48 0 -99 -25 t-77 -50l-27 -25l-66 77l13.5 13.5t37.5 30.5t59 39t75.5 30.5t89.5 13.5q118 0 185 -61.5t67 -161.5q0 -66 -26.5 -121.5t-70 -95t-96.5 -74t-109 -66.5t-105 -64t-86.5 -74.5t-51.5 -90.5h448l-20 -102h-569z" />
<glyph unicode="&#xbe;" horiz-adv-x="1959" d="M98 664l78 71q3 -4 9 -11t27 -24t44.5 -30t61 -24t77.5 -11q86 0 152.5 61.5t66.5 151.5q0 64 -51 102.5t-121 38.5h-67l-19 64l248 235l62 51v4q-39 -6 -76 -6h-311l18 103h539l-15 -74l-299 -285q33 -4 67 -18.5t67 -40t54 -70t21 -100.5q0 -128 -98.5 -226t-239.5 -98 q-53 0 -103 14t-83.5 34t-59 40t-37.5 34zM432 0l967 1440h127l-965 -1440h-129zM1096 233l14 78l545 580h119l-109 -555h133l-18 -103h-133l-48 -233h-112l45 233h-436zM1262 336h290l54 278q4 24 12.5 56t14.5 51.5t5 19.5h-4q-43 -55 -86 -100l-286 -301v-4z" />
<glyph unicode="&#xbf;" horiz-adv-x="899" d="M-43 -119q0 74 24 138.5t64 111.5t88.5 89t99.5 81.5t95 78t78 88t45 103.5l18 82h137l-18 -88q-15 -69 -49.5 -129t-78 -103.5t-92.5 -84t-95 -78t-83.5 -77t-60.5 -90t-23 -107.5q0 -85 61 -139t163 -54q64 0 130.5 21.5t101.5 43.5l34 21l59 -113q-6 -4 -17.5 -11.5 t-48 -25.5t-74 -32t-92.5 -25.5t-108 -11.5q-162 0 -260 85t-98 226zM496 868l32 162h160l-33 -162h-159z" />
<glyph unicode="&#xc0;" d="M-88 0l803 1440h155l248 -1440h-143l-76 459h-580l-253 -459h-154zM383 582h496l-86 522l-23 186h-4q-53 -118 -90 -186zM623 1784h151l96 -244h-118z" />
<glyph unicode="&#xc1;" d="M-88 0l803 1440h155l248 -1440h-143l-76 459h-580l-253 -459h-154zM383 582h496l-86 522l-23 186h-4q-53 -118 -90 -186zM741 1540l191 244h172l-227 -244h-136z" />
<glyph unicode="&#xc2;" d="M-88 0l803 1440h155l248 -1440h-143l-76 459h-580l-253 -459h-154zM383 582h496l-86 522l-23 186h-4q-53 -118 -90 -186zM559 1540l219 244h154l123 -244h-129l-78 166h-4l-144 -166h-141z" />
<glyph unicode="&#xc3;" d="M-88 0l803 1440h155l248 -1440h-143l-76 459h-580l-253 -459h-154zM383 582h496l-86 522l-23 186h-4q-53 -118 -90 -186zM510 1546q45 240 217 240q36 0 64.5 -15t47 -37t34.5 -44t36 -37t43 -15q78 0 105 142h110q-24 -121 -76.5 -180.5t-142.5 -59.5q-36 0 -64.5 15 t-46.5 36.5t-34.5 43t-36.5 36.5t-43 15q-41 0 -66.5 -44t-35.5 -96h-111z" />
<glyph unicode="&#xc4;" d="M-88 0l803 1440h155l248 -1440h-143l-76 459h-580l-253 -459h-154zM383 582h496l-86 522l-23 186h-4q-53 -118 -90 -186zM610 1608l35 176h125l-33 -176h-127zM920 1608l34 176h127l-34 -176h-127z" />
<glyph unicode="&#xc5;" d="M-88 0l803 1440h155l248 -1440h-143l-76 459h-580l-253 -459h-154zM383 582h496l-86 522l-23 186h-4q-53 -118 -90 -186zM680 1645q0 68 52 115.5t120 47.5q65 0 103 -34t38 -95q0 -66 -53 -113.5t-119 -47.5q-65 0 -103 33.5t-38 93.5zM768 1647q0 -24 14.5 -38 t40.5 -14q34 0 58 24.5t24 59.5q0 23 -15.5 38.5t-39.5 15.5q-33 0 -57.5 -25t-24.5 -61z" />
<glyph unicode="&#xc6;" horiz-adv-x="1755" d="M-92 0l870 1440h996l-25 -127h-670l-102 -525h547l-25 -126h-547l-104 -535h706l-24 -127h-848l129 664h-346l-397 -664h-160zM539 786h295l104 527h-82z" />
<glyph unicode="&#xc7;" horiz-adv-x="1492" d="M125 594q0 175 71.5 336.5t188.5 278t273.5 186t320.5 69.5q99 0 188 -19t145 -46.5t97.5 -55t59.5 -46.5l18 -19l-90 -100q-6 6 -17 16.5t-50.5 37t-83.5 46.5t-115.5 36.5t-147.5 16.5q-140 0 -271.5 -59t-227.5 -158t-154 -234.5t-58 -281.5q0 -215 130 -352t348 -137 q81 0 163 19.5t140.5 47.5t105.5 56t71 48l23 19l70 -111q-10 -9 -28 -23t-77.5 -51t-123 -65t-159 -51t-190.5 -23h-4l-32 -88q49 -8 83.5 -42.5t34.5 -90.5q0 -86 -68 -130t-153 -44q-30 0 -57.5 3t-40.5 6l-12 3l20 95q35 -11 82 -11t83 18.5t36 61.5q0 28 -28 44t-77 16 l-30 -2l71 168q-246 27 -387 194t-141 418z" />
<glyph unicode="&#xc8;" horiz-adv-x="1163" d="M90 0l281 1440h811l-27 -127h-668l-102 -525h547l-25 -126h-545l-106 -535h705l-23 -127h-848zM627 1784h151l96 -244h-118z" />
<glyph unicode="&#xc9;" horiz-adv-x="1163" d="M90 0l281 1440h811l-27 -127h-668l-102 -525h547l-25 -126h-545l-106 -535h705l-23 -127h-848zM748 1540l190 244h172l-227 -244h-135z" />
<glyph unicode="&#xca;" horiz-adv-x="1163" d="M90 0l281 1440h811l-27 -127h-668l-102 -525h547l-25 -126h-545l-106 -535h705l-23 -127h-848zM565 1540l219 244h154l123 -244h-129l-78 166h-4l-143 -166h-142z" />
<glyph unicode="&#xcb;" horiz-adv-x="1163" d="M90 0l281 1440h811l-27 -127h-668l-102 -525h547l-25 -126h-545l-106 -535h705l-23 -127h-848zM616 1608l35 176h125l-33 -176h-127zM926 1608l35 176h126l-34 -176h-127z" />
<glyph unicode="&#xcc;" horiz-adv-x="559" d="M90 0l281 1440h141l-281 -1440h-141zM272 1784h152l96 -244h-119z" />
<glyph unicode="&#xcd;" horiz-adv-x="559" d="M90 0l281 1440h141l-281 -1440h-141zM389 1540l191 244h172l-228 -244h-135z" />
<glyph unicode="&#xce;" horiz-adv-x="559" d="M90 0l281 1440h141l-281 -1440h-141zM209 1540l219 244h154l123 -244h-130l-77 166h-4l-144 -166h-141z" />
<glyph unicode="&#xcf;" horiz-adv-x="559" d="M90 0l281 1440h141l-281 -1440h-141zM260 1608l35 176h125l-33 -176h-127zM569 1608l35 176h127l-35 -176h-127z" />
<glyph unicode="&#xd0;" horiz-adv-x="1540" d="M117 0l129 662h-121l25 122h120l129 656h437q293 0 458.5 -146.5t165.5 -412.5q0 -180 -63 -341.5t-174 -280.5t-271.5 -189t-345.5 -70h-489zM283 127h309q153 0 287.5 57.5t229.5 156.5t149.5 237t54.5 294q0 212 -130 326.5t-360 114.5h-307l-104 -529h344l-25 -122 h-344z" />
<glyph unicode="&#xd1;" horiz-adv-x="1529" d="M90 0l281 1440h127l532 -1037q16 -32 36 -80.5t32 -80.5l12 -33h4q11 118 25 194l202 1037h142l-281 -1440h-127l-532 1036q-16 32 -36.5 81t-32.5 81l-13 33h-4q-11 -119 -25 -195l-201 -1036h-141zM641 1546q45 240 217 240q36 0 64.5 -15t47 -37t34.5 -44t36 -37 t43 -15q78 0 105 142h110q-24 -121 -76.5 -180.5t-142.5 -59.5q-36 0 -64.5 15t-46.5 36.5t-34.5 43t-36.5 36.5t-43 15q-41 0 -66.5 -44t-35.5 -96h-111z" />
<glyph unicode="&#xd2;" horiz-adv-x="1683" d="M119 598q0 171 74 332.5t193.5 277.5t277 186t319.5 70q278 0 452.5 -170t174.5 -436q0 -140 -48 -274.5t-132 -243t-193 -191.5t-237 -128.5t-257 -45.5q-278 0 -451 175t-173 448zM264 602q0 -217 134 -355t347 -138q131 0 261 59.5t230.5 158.5t163 237.5t62.5 287.5 q0 211 -134 345t-347 134q-89 0 -178 -26.5t-168 -73.5t-147.5 -114.5t-118 -147t-77.5 -174.5t-28 -193zM827 1784h152l96 -244h-119z" />
<glyph unicode="&#xd3;" horiz-adv-x="1683" d="M119 598q0 171 74 332.5t193.5 277.5t277 186t319.5 70q278 0 452.5 -170t174.5 -436q0 -140 -48 -274.5t-132 -243t-193 -191.5t-237 -128.5t-257 -45.5q-278 0 -451 175t-173 448zM264 602q0 -217 134 -355t347 -138q131 0 261 59.5t230.5 158.5t163 237.5t62.5 287.5 q0 211 -134 345t-347 134q-89 0 -178 -26.5t-168 -73.5t-147.5 -114.5t-118 -147t-77.5 -174.5t-28 -193zM946 1540l191 244h172l-228 -244h-135z" />
<glyph unicode="&#xd4;" horiz-adv-x="1683" d="M119 598q0 171 74 332.5t193.5 277.5t277 186t319.5 70q278 0 452.5 -170t174.5 -436q0 -140 -48 -274.5t-132 -243t-193 -191.5t-237 -128.5t-257 -45.5q-278 0 -451 175t-173 448zM264 602q0 -217 134 -355t347 -138q131 0 261 59.5t230.5 158.5t163 237.5t62.5 287.5 q0 211 -134 345t-347 134q-89 0 -178 -26.5t-168 -73.5t-147.5 -114.5t-118 -147t-77.5 -174.5t-28 -193zM764 1540l219 244h154l123 -244h-130l-77 166h-4l-144 -166h-141z" />
<glyph unicode="&#xd5;" horiz-adv-x="1683" d="M119 598q0 171 74 332.5t193.5 277.5t277 186t319.5 70q278 0 452.5 -170t174.5 -436q0 -140 -48 -274.5t-132 -243t-193 -191.5t-237 -128.5t-257 -45.5q-278 0 -451 175t-173 448zM264 602q0 -217 134 -355t347 -138q131 0 261 59.5t230.5 158.5t163 237.5t62.5 287.5 q0 211 -134 345t-347 134q-89 0 -178 -26.5t-168 -73.5t-147.5 -114.5t-118 -147t-77.5 -174.5t-28 -193zM715 1546q45 240 217 240q36 0 64.5 -15t47 -37t34.5 -44t36 -37t43 -15q78 0 105 142h110q-24 -121 -76.5 -180.5t-142.5 -59.5q-36 0 -64.5 15t-46.5 36.5t-34.5 43 t-36.5 36.5t-43 15q-41 0 -67 -44t-36 -96h-110z" />
<glyph unicode="&#xd6;" horiz-adv-x="1683" d="M119 598q0 171 74 332.5t193.5 277.5t277 186t319.5 70q278 0 452.5 -170t174.5 -436q0 -140 -48 -274.5t-132 -243t-193 -191.5t-237 -128.5t-257 -45.5q-278 0 -451 175t-173 448zM264 602q0 -217 134 -355t347 -138q131 0 261 59.5t230.5 158.5t163 237.5t62.5 287.5 q0 211 -134 345t-347 134q-89 0 -178 -26.5t-168 -73.5t-147.5 -114.5t-118 -147t-77.5 -174.5t-28 -193zM815 1608l35 176h125l-33 -176h-127zM1124 1608l35 176h127l-35 -176h-127z" />
<glyph unicode="&#xd7;" horiz-adv-x="1421" d="M184 84l443 498l-443 497l84 84l439 -493l438 493l84 -84l-445 -497l445 -498l-84 -84l-438 494l-439 -494z" />
<glyph unicode="&#xd8;" horiz-adv-x="1689" d="M121 598q0 137 47.5 269.5t131 238.5t192 187.5t237 126t258.5 44.5q226 0 383 -114l129 141l78 -66l-129 -141q164 -167 164 -426q0 -140 -47.5 -274.5t-131.5 -243t-192 -191.5t-236 -128.5t-257 -45.5q-229 0 -392 119l-131 -143l-80 63l136 148q-160 174 -160 436z M268 602q0 -197 113 -332l893 975q-122 86 -289 86q-134 0 -264.5 -58t-230 -155t-161 -233.5t-61.5 -282.5zM453 201q125 -92 295 -92q132 0 262 59.5t230 158.5t162 237.5t62 287.5q0 193 -114 326z" />
<glyph unicode="&#xd9;" horiz-adv-x="1476" d="M156 393q0 55 12 117l182 930h142l-183 -934q-10 -49 -10 -96q0 -142 90.5 -221.5t251.5 -79.5q186 0 317.5 107t167.5 294l183 930h143l-188 -948q-47 -239 -214.5 -378t-410.5 -139q-220 0 -351.5 111t-131.5 307zM727 1784h152l96 -244h-119z" />
<glyph unicode="&#xda;" horiz-adv-x="1476" d="M156 393q0 55 12 117l182 930h142l-183 -934q-10 -49 -10 -96q0 -142 90.5 -221.5t251.5 -79.5q186 0 317.5 107t167.5 294l183 930h143l-188 -948q-47 -239 -214.5 -378t-410.5 -139q-220 0 -351.5 111t-131.5 307zM846 1540l190 244h172l-227 -244h-135z" />
<glyph unicode="&#xdb;" horiz-adv-x="1476" d="M156 393q0 55 12 117l182 930h142l-183 -934q-10 -49 -10 -96q0 -142 90.5 -221.5t251.5 -79.5q186 0 317.5 107t167.5 294l183 930h143l-188 -948q-47 -239 -214.5 -378t-410.5 -139q-220 0 -351.5 111t-131.5 307zM664 1540l219 244h153l123 -244h-129l-78 166h-4 l-143 -166h-141z" />
<glyph unicode="&#xdc;" horiz-adv-x="1476" d="M156 393q0 55 12 117l182 930h142l-183 -934q-10 -49 -10 -96q0 -142 90.5 -221.5t251.5 -79.5q186 0 317.5 107t167.5 294l183 930h143l-188 -948q-47 -239 -214.5 -378t-410.5 -139q-220 0 -351.5 111t-131.5 307zM715 1608l35 176h124l-32 -176h-127zM1024 1608 l35 176h127l-35 -176h-127z" />
<glyph unicode="&#xdd;" horiz-adv-x="1155" d="M176 1440h152l202 -522q13 -34 27.5 -77t22.5 -69l8 -27h4q60 94 119 170l405 525h172l-649 -826l-121 -614h-141l123 618zM676 1540l190 244h172l-227 -244h-135z" />
<glyph unicode="&#xde;" horiz-adv-x="1230" d="M90 0l283 1440h141l-51 -256h332q142 0 227 -49q80 -43 124 -122.5t44 -181.5q0 -164 -85.5 -293t-221.5 -188q-93 -41 -211 -41h-377l-62 -309h-143zM317 436h340q95 0 168 33q99 43 158 135.5t59 220.5q0 109 -70 170.5t-194 61.5h-340z" />
<glyph unicode="&#xdf;" horiz-adv-x="1175" d="M51 0l213 1104q22 112 95 196t167.5 124t194.5 40q154 0 243 -76t89 -192q0 -68 -32.5 -126.5t-78.5 -98.5t-92 -76t-78.5 -75t-32.5 -79q0 -36 32.5 -73t78.5 -73t92 -75.5t78.5 -94.5t32.5 -116q0 -133 -111 -228t-258 -95q-88 0 -166.5 16.5t-113.5 32.5l-35 16 l26 129q5 -3 13.5 -7.5t36.5 -16.5t58.5 -21t77.5 -16.5t95 -7.5q40 0 79.5 12t74.5 34.5t57 61.5t22 88q0 40 -23.5 78.5t-58.5 68t-75.5 63t-75.5 63.5t-58.5 70.5t-23.5 82.5q0 48 23 93t58 77t75.5 67.5t75.5 65t58 69.5t23 81q0 62 -48.5 106.5t-139.5 44.5 q-70 0 -135 -28.5t-116 -89.5t-67 -142l-211 -1077h-139z" />
<glyph unicode="&#xe0;" horiz-adv-x="1067" d="M16 236q0 69 24 127t63.5 98.5t96.5 72t117.5 51t131.5 31.5t133.5 16.5t128.5 4.5h65q15 69 15 108q0 84 -50 134.5t-161 50.5q-76 0 -154 -25t-118 -49l-40 -25l-45 117q6 4 18 11.5t50 26t78.5 32.5t101.5 25.5t121 11.5q160 0 250 -72.5t90 -220.5q0 -52 -12 -113 l-127 -649h-134l25 119l23 88h-5q2 0 -13 -24t-46.5 -58t-74.5 -68t-107.5 -58t-134.5 -24q-130 0 -220 70.5t-90 190.5zM160 254q0 -68 50.5 -114t147.5 -46q92 0 177 61t139.5 149t75.5 181l8 37h-60q-45 0 -84.5 -1.5t-96.5 -8t-103.5 -17t-95.5 -31t-82 -48t-54.5 -69 t-21.5 -93.5zM449 1440h151l96 -244h-118z" />
<glyph unicode="&#xe1;" horiz-adv-x="1067" d="M16 236q0 69 24 127t63.5 98.5t96.5 72t117.5 51t131.5 31.5t133.5 16.5t128.5 4.5h65q15 69 15 108q0 84 -50 134.5t-161 50.5q-76 0 -154 -25t-118 -49l-40 -25l-45 117q6 4 18 11.5t50 26t78.5 32.5t101.5 25.5t121 11.5q160 0 250 -72.5t90 -220.5q0 -52 -12 -113 l-127 -649h-134l25 119l23 88h-5q2 0 -13 -24t-46.5 -58t-74.5 -68t-107.5 -58t-134.5 -24q-130 0 -220 70.5t-90 190.5zM160 254q0 -68 50.5 -114t147.5 -46q92 0 177 61t139.5 149t75.5 181l8 37h-60q-45 0 -84.5 -1.5t-96.5 -8t-103.5 -17t-95.5 -31t-82 -48t-54.5 -69 t-21.5 -93.5zM569 1196l191 244h172l-227 -244h-136z" />
<glyph unicode="&#xe2;" horiz-adv-x="1067" d="M16 236q0 69 24 127t63.5 98.5t96.5 72t117.5 51t131.5 31.5t133.5 16.5t128.5 4.5h65q15 69 15 108q0 84 -50 134.5t-161 50.5q-76 0 -154 -25t-118 -49l-40 -25l-45 117q6 4 18 11.5t50 26t78.5 32.5t101.5 25.5t121 11.5q160 0 250 -72.5t90 -220.5q0 -52 -12 -113 l-127 -649h-134l25 119l23 88h-5q2 0 -13 -24t-46.5 -58t-74.5 -68t-107.5 -58t-134.5 -24q-130 0 -220 70.5t-90 190.5zM160 254q0 -68 50.5 -114t147.5 -46q92 0 177 61t139.5 149t75.5 181l8 37h-60q-45 0 -84.5 -1.5t-96.5 -8t-103.5 -17t-95.5 -31t-82 -48t-54.5 -69 t-21.5 -93.5zM385 1196l219 244h154l123 -244h-129l-78 166h-4l-144 -166h-141z" />
<glyph unicode="&#xe3;" horiz-adv-x="1067" d="M16 236q0 69 24 127t63.5 98.5t96.5 72t117.5 51t131.5 31.5t133.5 16.5t128.5 4.5h65q15 69 15 108q0 84 -50 134.5t-161 50.5q-76 0 -154 -25t-118 -49l-40 -25l-45 117q6 4 18 11.5t50 26t78.5 32.5t101.5 25.5t121 11.5q160 0 250 -72.5t90 -220.5q0 -52 -12 -113 l-127 -649h-134l25 119l23 88h-5q2 0 -13 -24t-46.5 -58t-74.5 -68t-107.5 -58t-134.5 -24q-130 0 -220 70.5t-90 190.5zM160 254q0 -68 50.5 -114t147.5 -46q92 0 177 61t139.5 149t75.5 181l8 37h-60q-45 0 -84.5 -1.5t-96.5 -8t-103.5 -17t-95.5 -31t-82 -48t-54.5 -69 t-21.5 -93.5zM336 1202q45 240 217 240q36 0 64.5 -15t47 -37t34.5 -44t36 -37t43 -15q78 0 105 142h110q-24 -121 -76.5 -180.5t-142.5 -59.5q-36 0 -64.5 15t-46.5 36t-34.5 42.5t-36.5 36.5t-43 15q-41 0 -67 -43.5t-36 -95.5h-110z" />
<glyph unicode="&#xe4;" horiz-adv-x="1067" d="M16 236q0 69 24 127t63.5 98.5t96.5 72t117.5 51t131.5 31.5t133.5 16.5t128.5 4.5h65q15 69 15 108q0 84 -50 134.5t-161 50.5q-76 0 -154 -25t-118 -49l-40 -25l-45 117q6 4 18 11.5t50 26t78.5 32.5t101.5 25.5t121 11.5q160 0 250 -72.5t90 -220.5q0 -52 -12 -113 l-127 -649h-134l25 119l23 88h-5q2 0 -13 -24t-46.5 -58t-74.5 -68t-107.5 -58t-134.5 -24q-130 0 -220 70.5t-90 190.5zM160 254q0 -68 50.5 -114t147.5 -46q92 0 177 61t139.5 149t75.5 181l8 37h-60q-45 0 -84.5 -1.5t-96.5 -8t-103.5 -17t-95.5 -31t-82 -48t-54.5 -69 t-21.5 -93.5zM436 1264l35 176h125l-33 -176h-127zM745 1264l35 176h127l-35 -176h-127z" />
<glyph unicode="&#xe5;" horiz-adv-x="1067" d="M16 236q0 69 24 127t63.5 98.5t96.5 72t117.5 51t131.5 31.5t133.5 16.5t128.5 4.5h65q15 69 15 108q0 84 -50 134.5t-161 50.5q-76 0 -154 -25t-118 -49l-40 -25l-45 117q6 4 18 11.5t50 26t78.5 32.5t101.5 25.5t121 11.5q160 0 250 -72.5t90 -220.5q0 -52 -12 -113 l-127 -649h-134l25 119l23 88h-5q2 0 -13 -24t-46.5 -58t-74.5 -68t-107.5 -58t-134.5 -24q-130 0 -220 70.5t-90 190.5zM160 254q0 -68 50.5 -114t147.5 -46q92 0 177 61t139.5 149t75.5 181l8 37h-60q-45 0 -84.5 -1.5t-96.5 -8t-103.5 -17t-95.5 -31t-82 -48t-54.5 -69 t-21.5 -93.5zM506 1300q0 68 52.5 116t119.5 48q65 0 103 -34t38 -95q0 -66 -53 -113.5t-119 -47.5q-65 0 -103 33.5t-38 92.5zM594 1303q0 -24 14.5 -38t40.5 -14q34 0 58 24.5t24 59.5q0 23 -15.5 38.5t-39.5 15.5q-33 0 -57.5 -25t-24.5 -61z" />
<glyph unicode="&#xe6;" horiz-adv-x="1781" d="M16 236q0 393 689 393h67q14 74 14 116q0 185 -217 185q-69 0 -144.5 -25t-116.5 -49l-40 -25l-45 117q6 4 18 11.5t50.5 26t78 32.5t98.5 25.5t116 11.5q277 0 317 -199h4q78 98 184.5 148.5t227.5 50.5q184 0 280.5 -101.5t96.5 -273.5q0 -32 -7 -73.5t-15 -66.5 l-7 -26h-776q-8 -41 -8 -88q0 -158 82 -242t229 -84q53 0 107 13t93.5 31t72 36.5t49.5 31.5l16 13l45 -114q-7 -6 -19.5 -15t-53.5 -32.5t-83.5 -41.5t-105.5 -32.5t-123 -14.5q-164 0 -276 76t-148 205h-4q-9 -21 -27 -49.5t-57 -71t-85.5 -76.5t-117 -59t-147.5 -25 q-134 0 -223 69t-89 192zM160 252q0 -69 50.5 -113.5t145.5 -44.5q71 0 137 34.5t115 90t83.5 121.5t51.5 133l11 41h-121q-41 0 -79.5 -2t-87.5 -9t-90 -18t-82.5 -31t-69.5 -46.5t-46 -66.5t-18 -89zM918 629h628q4 46 4 67q0 120 -66 181t-169 61q-132 0 -238 -80.5 t-159 -228.5z" />
<glyph unicode="&#xe7;" horiz-adv-x="1128" d="M72 414q0 136 53.5 257t142 204t203 131.5t234.5 48.5q73 0 138 -15t106 -37t71.5 -44t43.5 -37l13 -15l-84 -94q-4 5 -11.5 12.5t-34.5 27.5t-57 35t-78.5 27.5t-100.5 12.5q-123 0 -236.5 -63.5t-186.5 -181t-73 -257.5q0 -147 93.5 -236.5t242.5 -89.5q59 0 118 15 t100.5 36.5t75 43t49.5 36.5l17 15l43 -117q-7 -6 -19 -16.5t-53.5 -37t-86 -47t-113 -37t-137.5 -16.5h-10l-33 -88q49 -8 84 -42.5t35 -90.5q0 -59 -36 -100t-84.5 -57.5t-101.5 -16.5q-30 0 -57.5 3t-39.5 6l-13 3l20 95q35 -11 82 -11t83 18.5t36 61.5q0 28 -27.5 44 t-76.5 16l-31 -2l71 170q-172 26 -273 141.5t-101 288.5z" />
<glyph unicode="&#xe8;" horiz-adv-x="1132" d="M70 410q0 125 45.5 242.5t123.5 206.5t190.5 142.5t238.5 53.5q186 0 281 -102t95 -271q0 -36 -7.5 -79.5t-14.5 -68.5l-8 -26h-791q-8 -41 -8 -88q0 -139 86 -229.5t244 -90.5q52 0 106 13t93.5 31t71.5 36.5t48 31.5l17 13l45 -114q-7 -6 -19.5 -15t-53 -32.5 t-83.5 -41.5t-105.5 -32.5t-123.5 -14.5q-212 0 -341.5 120t-129.5 315zM250 623h645q6 34 6 71q0 119 -64.5 181.5t-168.5 62.5q-133 0 -248.5 -83.5t-169.5 -231.5zM526 1440h152l96 -244h-119z" />
<glyph unicode="&#xe9;" horiz-adv-x="1132" d="M70 410q0 125 45.5 242.5t123.5 206.5t190.5 142.5t238.5 53.5q186 0 281 -102t95 -271q0 -36 -7.5 -79.5t-14.5 -68.5l-8 -26h-791q-8 -41 -8 -88q0 -139 86 -229.5t244 -90.5q52 0 106 13t93.5 31t71.5 36.5t48 31.5l17 13l45 -114q-7 -6 -19.5 -15t-53 -32.5 t-83.5 -41.5t-105.5 -32.5t-123.5 -14.5q-212 0 -341.5 120t-129.5 315zM250 623h645q6 34 6 71q0 119 -64.5 181.5t-168.5 62.5q-133 0 -248.5 -83.5t-169.5 -231.5zM645 1196l191 244h172l-228 -244h-135z" />
<glyph unicode="&#xea;" horiz-adv-x="1132" d="M70 410q0 125 45.5 242.5t123.5 206.5t190.5 142.5t238.5 53.5q186 0 281 -102t95 -271q0 -36 -7.5 -79.5t-14.5 -68.5l-8 -26h-791q-8 -41 -8 -88q0 -139 86 -229.5t244 -90.5q52 0 106 13t93.5 31t71.5 36.5t48 31.5l17 13l45 -114q-7 -6 -19.5 -15t-53 -32.5 t-83.5 -41.5t-105.5 -32.5t-123.5 -14.5q-212 0 -341.5 120t-129.5 315zM250 623h645q6 34 6 71q0 119 -64.5 181.5t-168.5 62.5q-133 0 -248.5 -83.5t-169.5 -231.5zM463 1196l219 244h154l122 -244h-129l-77 166h-4l-144 -166h-141z" />
<glyph unicode="&#xeb;" horiz-adv-x="1132" d="M70 410q0 125 45.5 242.5t123.5 206.5t190.5 142.5t238.5 53.5q186 0 281 -102t95 -271q0 -36 -7.5 -79.5t-14.5 -68.5l-8 -26h-791q-8 -41 -8 -88q0 -139 86 -229.5t244 -90.5q52 0 106 13t93.5 31t71.5 36.5t48 31.5l17 13l45 -114q-7 -6 -19.5 -15t-53 -32.5 t-83.5 -41.5t-105.5 -32.5t-123.5 -14.5q-212 0 -341.5 120t-129.5 315zM250 623h645q6 34 6 71q0 119 -64.5 181.5t-168.5 62.5q-133 0 -248.5 -83.5t-169.5 -231.5zM514 1264l35 176h125l-33 -176h-127zM823 1264l35 176h127l-35 -176h-127z" />
<glyph unicode="&#xec;" horiz-adv-x="475" d="M51 0l199 1030h139l-199 -1030h-139zM162 1440h151l97 -244h-119z" />
<glyph unicode="&#xed;" horiz-adv-x="475" d="M51 0l199 1030h139l-199 -1030h-139zM283 1196l190 244h172l-227 -244h-135z" />
<glyph unicode="&#xee;" horiz-adv-x="475" d="M51 0l199 1030h139l-199 -1030h-139zM98 1196l219 244h154l123 -244h-129l-78 166h-4l-143 -166h-142z" />
<glyph unicode="&#xef;" horiz-adv-x="475" d="M51 0l199 1030h139l-199 -1030h-139zM152 1264l34 176h125l-32 -176h-127zM461 1264l35 176h127l-35 -176h-127z" />
<glyph unicode="&#xf0;" horiz-adv-x="1208" d="M66 383q0 103 40 204.5t112 184t183.5 133.5t243.5 51q58 0 109.5 -12t83 -29.5t55 -35t33.5 -29.5l10 -12h4q-35 202 -192 333l-394 -161l-8 100l309 127q-116 70 -274 113l57 108q214 -56 361 -162l303 127l10 -100l-229 -94q209 -199 209 -506q0 -63 -11 -132 t-34.5 -142t-58 -141t-85 -129t-111.5 -106t-141 -71.5t-170 -26.5q-134 0 -230 57t-140.5 147.5t-44.5 203.5zM209 387q0 -123 71 -205t201 -82q78 0 150.5 32t125.5 84t93 117t60 133t20 130q0 109 -76.5 175.5t-206.5 66.5q-119 0 -220 -61.5t-159.5 -165.5t-58.5 -224z " />
<glyph unicode="&#xf1;" horiz-adv-x="1216" d="M49 0l201 1030h135l-27 -147q-4 -21 -10.5 -45t-11.5 -38l-4 -14h4q21 42 62 86.5t98.5 86.5t135.5 69t159 27q141 0 217.5 -68t76.5 -199q0 -55 -16 -137l-127 -651h-139l119 616q16 75 16 138q0 85 -47 127.5t-129 42.5q-84 0 -165.5 -36.5t-144.5 -97.5t-108.5 -142.5 t-62.5 -170.5l-93 -477h-139zM444 1202q45 240 218 240q36 0 64.5 -15t47 -37t34.5 -44t36 -37t43 -15q77 0 104 142h111q-24 -121 -76.5 -180.5t-142.5 -59.5q-36 0 -64.5 15t-46.5 36t-34.5 42.5t-37 36.5t-43.5 15q-41 0 -66.5 -43.5t-35.5 -95.5h-111z" />
<glyph unicode="&#xf2;" horiz-adv-x="1275" d="M68 426q0 128 53.5 246t141.5 201t203 132.5t234 49.5q209 0 340 -124.5t131 -320.5q0 -130 -54.5 -249t-142.5 -202.5t-202.5 -133.5t-232.5 -50q-210 0 -340.5 126t-130.5 325zM211 430q0 -145 91.5 -237.5t238.5 -92.5q89 0 177 39.5t156.5 106t111 161t42.5 197.5 q0 143 -92 233.5t-238 90.5q-122 0 -234 -65.5t-182.5 -181.5t-70.5 -251zM559 1440h152l96 -244h-119z" />
<glyph unicode="&#xf3;" horiz-adv-x="1275" d="M68 426q0 128 53.5 246t141.5 201t203 132.5t234 49.5q209 0 340 -124.5t131 -320.5q0 -130 -54.5 -249t-142.5 -202.5t-202.5 -133.5t-232.5 -50q-210 0 -340.5 126t-130.5 325zM211 430q0 -145 91.5 -237.5t238.5 -92.5q89 0 177 39.5t156.5 106t111 161t42.5 197.5 q0 143 -92 233.5t-238 90.5q-122 0 -234 -65.5t-182.5 -181.5t-70.5 -251zM680 1196l190 244h172l-227 -244h-135z" />
<glyph unicode="&#xf4;" horiz-adv-x="1275" d="M68 426q0 128 53.5 246t141.5 201t203 132.5t234 49.5q209 0 340 -124.5t131 -320.5q0 -130 -54.5 -249t-142.5 -202.5t-202.5 -133.5t-232.5 -50q-210 0 -340.5 126t-130.5 325zM211 430q0 -145 91.5 -237.5t238.5 -92.5q89 0 177 39.5t156.5 106t111 161t42.5 197.5 q0 143 -92 233.5t-238 90.5q-122 0 -234 -65.5t-182.5 -181.5t-70.5 -251zM498 1196l219 244h153l123 -244h-129l-78 166h-4l-143 -166h-141z" />
<glyph unicode="&#xf5;" horiz-adv-x="1275" d="M68 426q0 128 53.5 246t141.5 201t203 132.5t234 49.5q209 0 340 -124.5t131 -320.5q0 -130 -54.5 -249t-142.5 -202.5t-202.5 -133.5t-232.5 -50q-210 0 -340.5 126t-130.5 325zM211 430q0 -145 91.5 -237.5t238.5 -92.5q89 0 177 39.5t156.5 106t111 161t42.5 197.5 q0 143 -92 233.5t-238 90.5q-122 0 -234 -65.5t-182.5 -181.5t-70.5 -251zM446 1202q45 240 218 240q36 0 64.5 -15t47 -37t34.5 -44t36 -37t43 -15q77 0 104 142h111q-24 -121 -76.5 -180.5t-142.5 -59.5q-36 0 -64.5 15t-46.5 36t-34.5 42.5t-37 36.5t-43.5 15 q-41 0 -66.5 -43.5t-35.5 -95.5h-111z" />
<glyph unicode="&#xf6;" horiz-adv-x="1275" d="M68 426q0 128 53.5 246t141.5 201t203 132.5t234 49.5q209 0 340 -124.5t131 -320.5q0 -130 -54.5 -249t-142.5 -202.5t-202.5 -133.5t-232.5 -50q-210 0 -340.5 126t-130.5 325zM211 430q0 -145 91.5 -237.5t238.5 -92.5q89 0 177 39.5t156.5 106t111 161t42.5 197.5 q0 143 -92 233.5t-238 90.5q-122 0 -234 -65.5t-182.5 -181.5t-70.5 -251zM549 1264l35 176h125l-33 -176h-127zM858 1264l35 176h127l-35 -176h-127z" />
<glyph unicode="&#xf7;" horiz-adv-x="1316" d="M150 522v119h1003v-119h-1003zM573 125v151h154v-151h-154zM573 887v151h154v-151h-154z" />
<glyph unicode="&#xf8;" horiz-adv-x="1275" d="M68 426q0 128 53.5 246t141.5 201t203 132.5t234 49.5q161 0 283 -80l107 117l77 -68l-106 -117q110 -119 110 -297q0 -130 -54.5 -249t-142.5 -202.5t-202.5 -133.5t-232.5 -50q-154 0 -269 70l-104 -113l-78 66l100 111q-120 123 -120 317zM211 430q0 -129 72 -217 l606 661q-83 54 -191 54q-122 0 -234 -65.5t-182.5 -181.5t-70.5 -251zM362 145q76 -45 179 -45q89 0 177 39.5t156.5 106t111 161t42.5 197.5q0 118 -63 199z" />
<glyph unicode="&#xf9;" horiz-adv-x="1206" d="M94 242q0 50 17 137l125 651h139l-119 -612q-14 -74 -14 -142q0 -81 40.5 -125.5t139.5 -44.5q111 0 212.5 66.5t167 169t87.5 215.5l92 473h139l-200 -1030h-138l29 147l27 97h-4q-18 -33 -45 -67.5t-69.5 -71t-91.5 -65t-113 -47t-132 -18.5q-127 0 -208 64.5 t-81 202.5zM518 1440h152l96 -244h-119z" />
<glyph unicode="&#xfa;" horiz-adv-x="1206" d="M94 242q0 50 17 137l125 651h139l-119 -612q-14 -74 -14 -142q0 -81 40.5 -125.5t139.5 -44.5q111 0 212.5 66.5t167 169t87.5 215.5l92 473h139l-200 -1030h-138l29 147l27 97h-4q-18 -33 -45 -67.5t-69.5 -71t-91.5 -65t-113 -47t-132 -18.5q-127 0 -208 64.5 t-81 202.5zM639 1196l190 244h172l-227 -244h-135z" />
<glyph unicode="&#xfb;" horiz-adv-x="1206" d="M94 242q0 50 17 137l125 651h139l-119 -612q-14 -74 -14 -142q0 -81 40.5 -125.5t139.5 -44.5q111 0 212.5 66.5t167 169t87.5 215.5l92 473h139l-200 -1030h-138l29 147l27 97h-4q-18 -33 -45 -67.5t-69.5 -71t-91.5 -65t-113 -47t-132 -18.5q-127 0 -208 64.5 t-81 202.5zM455 1196l219 244h153l123 -244h-129l-78 166h-4l-143 -166h-141z" />
<glyph unicode="&#xfc;" horiz-adv-x="1206" d="M94 242q0 50 17 137l125 651h139l-119 -612q-14 -74 -14 -142q0 -81 40.5 -125.5t139.5 -44.5q111 0 212.5 66.5t167 169t87.5 215.5l92 473h139l-200 -1030h-138l29 147l27 97h-4q-18 -33 -45 -67.5t-69.5 -71t-91.5 -65t-113 -47t-132 -18.5q-127 0 -208 64.5 t-81 202.5zM508 1264l35 176h125l-33 -176h-127zM817 1264l35 176h127l-35 -176h-127z" />
<glyph unicode="&#xfd;" horiz-adv-x="1021" d="M-184 -369l69 105q5 -5 14 -11.5t39 -18t62 -11.5q125 0 229 166l93 149l-234 1020h145l160 -770l19 -108h2q28 57 57 106l447 772h157l-753 -1249q-61 -102 -143 -156.5t-175 -54.5q-52 0 -99 15t-68 31zM547 1196l190 244h172l-227 -244h-135z" />
<glyph unicode="&#xfe;" horiz-adv-x="1212" d="M-29 -410l359 1850h137l-96 -504q-4 -19 -9.5 -40.5t-9.5 -33.5l-4 -12h4q55 87 152 146t219 59q181 0 281 -110.5t100 -303.5q0 -143 -47.5 -269t-125 -212t-178 -135.5t-206.5 -49.5q-115 0 -202.5 53t-121.5 154h-4q-2 -45 -12 -98l-96 -494h-140zM276 397 q0 -129 66.5 -213t192.5 -84q76 0 150.5 37t135.5 103t99 168.5t38 222.5q0 138 -68.5 217.5t-189.5 79.5q-91 0 -172 -47t-135 -123t-85.5 -171t-31.5 -190z" />
<glyph unicode="&#xff;" horiz-adv-x="1021" d="M-184 -369l69 105q5 -5 14 -11.5t39 -18t62 -11.5q125 0 229 166l93 149l-234 1020h145l160 -770l19 -108h2q28 57 57 106l447 772h157l-753 -1249q-61 -102 -143 -156.5t-175 -54.5q-52 0 -99 15t-68 31zM416 1264l35 176h124l-32 -176h-127zM725 1264l35 176h127 l-35 -176h-127z" />
<glyph unicode="&#x152;" horiz-adv-x="1943" d="M121 588q0 173 70.5 334.5t187.5 279t274.5 188t325.5 70.5q51 0 144.5 -10t127.5 -10h711l-25 -127h-667l-103 -525h547l-26 -126h-547l-103 -535h705l-25 -127h-723q-29 0 -116.5 -10t-130.5 -10q-142 0 -260 45.5t-198.5 126.5t-124.5 193t-44 243zM266 582 q0 -209 131 -340t353 -131q35 0 71.5 4t56.5 8l19 4l229 1186q-63 16 -141 16q-192 0 -358 -101t-263.5 -273.5t-97.5 -372.5z" />
<glyph unicode="&#x153;" horiz-adv-x="2074" d="M68 426q0 128 53.5 246t141.5 201t203 132.5t234 49.5q155 0 267 -76t159 -203h4q79 127 205 203t277 76q185 0 280 -102t95 -271q0 -36 -7.5 -79.5t-15.5 -68.5l-8 -26h-789q-8 -41 -8 -88q0 -141 87 -230.5t241 -89.5q52 0 106 13t93.5 31t71.5 36.5t48 31.5l17 13 l45 -114q-7 -6 -19.5 -15t-53 -32.5t-83.5 -41.5t-105.5 -32.5t-123.5 -14.5q-161 0 -275 74.5t-157 206.5h-4q-89 -129 -224.5 -205t-281.5 -76q-210 0 -341.5 126t-131.5 325zM211 430q0 -145 92 -237.5t238 -92.5q121 0 233 66t184 183.5t72 254.5q0 143 -92 233.5 t-238 90.5q-123 0 -235.5 -65.5t-183 -181.5t-70.5 -251zM1194 623h643q6 34 6 71q0 119 -64 181.5t-169 62.5q-133 0 -247.5 -83.5t-168.5 -231.5z" />
<glyph unicode="&#x178;" horiz-adv-x="1155" d="M176 1440h152l202 -522q13 -34 27.5 -77t22.5 -69l8 -27h4q60 94 119 170l405 525h172l-649 -826l-121 -614h-141l123 618zM545 1608l35 176h125l-33 -176h-127zM854 1608l35 176h127l-35 -176h-127z" />
<glyph unicode="&#x2c6;" horiz-adv-x="1032" d="M125 1540l219 244h154l123 -244h-129l-78 166h-4l-144 -166h-141z" />
<glyph unicode="&#x2dc;" horiz-adv-x="1032" d="M74 1546q45 240 217 240q36 0 64.5 -15t47 -37t34.5 -44t36 -37t43 -15q78 0 105 142h110q-24 -121 -76.5 -180.5t-142.5 -59.5q-36 0 -64.5 15t-46.5 36.5t-34.5 43t-36.5 36.5t-43 15q-41 0 -67 -44t-36 -96h-110z" />
<glyph unicode="&#x2000;" horiz-adv-x="904" />
<glyph unicode="&#x2001;" horiz-adv-x="1808" />
<glyph unicode="&#x2002;" horiz-adv-x="904" />
<glyph unicode="&#x2003;" horiz-adv-x="1808" />
<glyph unicode="&#x2004;" horiz-adv-x="602" />
<glyph unicode="&#x2005;" horiz-adv-x="452" />
<glyph unicode="&#x2006;" horiz-adv-x="301" />
<glyph unicode="&#x2007;" horiz-adv-x="301" />
<glyph unicode="&#x2008;" horiz-adv-x="226" />
<glyph unicode="&#x2009;" horiz-adv-x="361" />
<glyph unicode="&#x200a;" horiz-adv-x="100" />
<glyph unicode="&#x2010;" horiz-adv-x="999" d="M190 518l23 127h582l-25 -127h-580z" />
<glyph unicode="&#x2011;" horiz-adv-x="999" d="M190 518l23 127h582l-25 -127h-580z" />
<glyph unicode="&#x2012;" horiz-adv-x="999" d="M190 518l23 127h582l-25 -127h-580z" />
<glyph unicode="&#x2013;" horiz-adv-x="1441" d="M193 522l22 119h1022l-20 -119h-1024z" />
<glyph unicode="&#x2014;" horiz-adv-x="1851" d="M193 522l22 119h1432l-21 -119h-1433z" />
<glyph unicode="&#x2018;" horiz-adv-x="440" d="M205 1108l182 350h117l-146 -350h-153z" />
<glyph unicode="&#x2019;" horiz-adv-x="432" d="M211 1108l147 350h152l-182 -350h-117z" />
<glyph unicode="&#x201a;" horiz-adv-x="495" d="M-43 -184l145 352h154l-182 -352h-117z" />
<glyph unicode="&#x201c;" horiz-adv-x="684" d="M205 1108l182 350h117l-146 -350h-153zM451 1108l182 350h117l-148 -350h-151z" />
<glyph unicode="&#x201d;" horiz-adv-x="677" d="M211 1108l147 350h152l-182 -350h-117zM457 1108l145 350h154l-183 -350h-116z" />
<glyph unicode="&#x201e;" horiz-adv-x="741" d="M-43 -184l147 352h152l-182 -352h-117zM203 -184l145 352h154l-183 -352h-116z" />
<glyph unicode="&#x2022;" horiz-adv-x="823" d="M115 596q0 122 85.5 207.5t207.5 85.5q121 0 205.5 -85.5t84.5 -207.5t-84.5 -207.5t-205.5 -85.5q-122 0 -207.5 85.5t-85.5 207.5z" />
<glyph unicode="&#x2026;" horiz-adv-x="1458" d="M51 0l33 170h164l-33 -170h-164zM532 0l33 170h164l-33 -170h-164zM1014 0l33 170h163l-32 -170h-164z" />
<glyph unicode="&#x202f;" horiz-adv-x="361" />
<glyph unicode="&#x2039;" horiz-adv-x="688" d="M90 582l393 417h160l-407 -428l258 -413h-140z" />
<glyph unicode="&#x203a;" horiz-adv-x="686" d="M31 158l407 428l-258 413h139l265 -424l-394 -417h-159z" />
<glyph unicode="&#x205f;" horiz-adv-x="452" />
<glyph unicode="&#x20ac;" horiz-adv-x="1200" d="M68 545l18 104h113q6 84 30 166h-108l18 105h125q102 240 316.5 392t459.5 152q56 0 109 -7t79 -14l25 -7l-57 -127q-72 20 -158 20q-192 0 -359.5 -113t-256.5 -296h627l-41 -105h-629q-28 -97 -33 -166h598l-39 -104h-555q5 -91 36.5 -169t86.5 -137.5t140.5 -93.5 t191.5 -34q45 0 92 7t71 14l25 7l6 -135q-87 -29 -200 -29q-261 0 -425 157.5t-175 412.5h-131z" />
<glyph unicode="&#x2122;" horiz-adv-x="2027" d="M184 1333v107h758v-107h-321v-790h-117v790h-320zM1016 543l71 897h107l236 -514q8 -17 15 -38t10 -34l3 -12h4q11 45 29 84l235 514h107l70 -897h-113l-51 608l2 59h-4l-230 -499h-94l-229 499h-4l2 -59l-52 -608h-114z" />
<glyph unicode="&#xe000;" horiz-adv-x="1034" d="M0 0v1034h1034v-1034h-1034z" />
</font>
</defs></svg> 